G75*
%MOIN*%
%OFA0B0*%
%FSLAX25Y25*%
%IPPOS*%
%LPD*%
%AMOC8*
5,1,8,0,0,1.08239X$1,22.5*
%
%ADD10C,0.00000*%
%ADD11C,0.07800*%
%ADD12C,0.06000*%
%ADD13R,0.05118X0.06299*%
%ADD14R,0.06299X0.05118*%
%ADD15R,0.01181X0.03937*%
%ADD16C,0.06450*%
%ADD17OC8,0.06000*%
%ADD18C,0.05000*%
%ADD19C,0.01000*%
%ADD20R,0.03962X0.03962*%
%ADD21C,0.04000*%
D10*
X0001500Y0001500D02*
X0001500Y0186451D01*
X0230171Y0186451D01*
X0230171Y0001500D01*
X0001500Y0001500D01*
X0106300Y0159000D02*
X0106302Y0159154D01*
X0106308Y0159309D01*
X0106318Y0159463D01*
X0106332Y0159617D01*
X0106350Y0159770D01*
X0106371Y0159923D01*
X0106397Y0160076D01*
X0106427Y0160227D01*
X0106460Y0160378D01*
X0106498Y0160528D01*
X0106539Y0160677D01*
X0106584Y0160825D01*
X0106633Y0160971D01*
X0106686Y0161117D01*
X0106742Y0161260D01*
X0106802Y0161403D01*
X0106866Y0161543D01*
X0106933Y0161683D01*
X0107004Y0161820D01*
X0107078Y0161955D01*
X0107156Y0162089D01*
X0107237Y0162220D01*
X0107322Y0162349D01*
X0107410Y0162477D01*
X0107501Y0162601D01*
X0107595Y0162724D01*
X0107693Y0162844D01*
X0107793Y0162961D01*
X0107897Y0163076D01*
X0108003Y0163188D01*
X0108112Y0163297D01*
X0108224Y0163403D01*
X0108339Y0163507D01*
X0108456Y0163607D01*
X0108576Y0163705D01*
X0108699Y0163799D01*
X0108823Y0163890D01*
X0108951Y0163978D01*
X0109080Y0164063D01*
X0109211Y0164144D01*
X0109345Y0164222D01*
X0109480Y0164296D01*
X0109617Y0164367D01*
X0109757Y0164434D01*
X0109897Y0164498D01*
X0110040Y0164558D01*
X0110183Y0164614D01*
X0110329Y0164667D01*
X0110475Y0164716D01*
X0110623Y0164761D01*
X0110772Y0164802D01*
X0110922Y0164840D01*
X0111073Y0164873D01*
X0111224Y0164903D01*
X0111377Y0164929D01*
X0111530Y0164950D01*
X0111683Y0164968D01*
X0111837Y0164982D01*
X0111991Y0164992D01*
X0112146Y0164998D01*
X0112300Y0165000D01*
X0112454Y0164998D01*
X0112609Y0164992D01*
X0112763Y0164982D01*
X0112917Y0164968D01*
X0113070Y0164950D01*
X0113223Y0164929D01*
X0113376Y0164903D01*
X0113527Y0164873D01*
X0113678Y0164840D01*
X0113828Y0164802D01*
X0113977Y0164761D01*
X0114125Y0164716D01*
X0114271Y0164667D01*
X0114417Y0164614D01*
X0114560Y0164558D01*
X0114703Y0164498D01*
X0114843Y0164434D01*
X0114983Y0164367D01*
X0115120Y0164296D01*
X0115255Y0164222D01*
X0115389Y0164144D01*
X0115520Y0164063D01*
X0115649Y0163978D01*
X0115777Y0163890D01*
X0115901Y0163799D01*
X0116024Y0163705D01*
X0116144Y0163607D01*
X0116261Y0163507D01*
X0116376Y0163403D01*
X0116488Y0163297D01*
X0116597Y0163188D01*
X0116703Y0163076D01*
X0116807Y0162961D01*
X0116907Y0162844D01*
X0117005Y0162724D01*
X0117099Y0162601D01*
X0117190Y0162477D01*
X0117278Y0162349D01*
X0117363Y0162220D01*
X0117444Y0162089D01*
X0117522Y0161955D01*
X0117596Y0161820D01*
X0117667Y0161683D01*
X0117734Y0161543D01*
X0117798Y0161403D01*
X0117858Y0161260D01*
X0117914Y0161117D01*
X0117967Y0160971D01*
X0118016Y0160825D01*
X0118061Y0160677D01*
X0118102Y0160528D01*
X0118140Y0160378D01*
X0118173Y0160227D01*
X0118203Y0160076D01*
X0118229Y0159923D01*
X0118250Y0159770D01*
X0118268Y0159617D01*
X0118282Y0159463D01*
X0118292Y0159309D01*
X0118298Y0159154D01*
X0118300Y0159000D01*
X0118298Y0158846D01*
X0118292Y0158691D01*
X0118282Y0158537D01*
X0118268Y0158383D01*
X0118250Y0158230D01*
X0118229Y0158077D01*
X0118203Y0157924D01*
X0118173Y0157773D01*
X0118140Y0157622D01*
X0118102Y0157472D01*
X0118061Y0157323D01*
X0118016Y0157175D01*
X0117967Y0157029D01*
X0117914Y0156883D01*
X0117858Y0156740D01*
X0117798Y0156597D01*
X0117734Y0156457D01*
X0117667Y0156317D01*
X0117596Y0156180D01*
X0117522Y0156045D01*
X0117444Y0155911D01*
X0117363Y0155780D01*
X0117278Y0155651D01*
X0117190Y0155523D01*
X0117099Y0155399D01*
X0117005Y0155276D01*
X0116907Y0155156D01*
X0116807Y0155039D01*
X0116703Y0154924D01*
X0116597Y0154812D01*
X0116488Y0154703D01*
X0116376Y0154597D01*
X0116261Y0154493D01*
X0116144Y0154393D01*
X0116024Y0154295D01*
X0115901Y0154201D01*
X0115777Y0154110D01*
X0115649Y0154022D01*
X0115520Y0153937D01*
X0115389Y0153856D01*
X0115255Y0153778D01*
X0115120Y0153704D01*
X0114983Y0153633D01*
X0114843Y0153566D01*
X0114703Y0153502D01*
X0114560Y0153442D01*
X0114417Y0153386D01*
X0114271Y0153333D01*
X0114125Y0153284D01*
X0113977Y0153239D01*
X0113828Y0153198D01*
X0113678Y0153160D01*
X0113527Y0153127D01*
X0113376Y0153097D01*
X0113223Y0153071D01*
X0113070Y0153050D01*
X0112917Y0153032D01*
X0112763Y0153018D01*
X0112609Y0153008D01*
X0112454Y0153002D01*
X0112300Y0153000D01*
X0112146Y0153002D01*
X0111991Y0153008D01*
X0111837Y0153018D01*
X0111683Y0153032D01*
X0111530Y0153050D01*
X0111377Y0153071D01*
X0111224Y0153097D01*
X0111073Y0153127D01*
X0110922Y0153160D01*
X0110772Y0153198D01*
X0110623Y0153239D01*
X0110475Y0153284D01*
X0110329Y0153333D01*
X0110183Y0153386D01*
X0110040Y0153442D01*
X0109897Y0153502D01*
X0109757Y0153566D01*
X0109617Y0153633D01*
X0109480Y0153704D01*
X0109345Y0153778D01*
X0109211Y0153856D01*
X0109080Y0153937D01*
X0108951Y0154022D01*
X0108823Y0154110D01*
X0108699Y0154201D01*
X0108576Y0154295D01*
X0108456Y0154393D01*
X0108339Y0154493D01*
X0108224Y0154597D01*
X0108112Y0154703D01*
X0108003Y0154812D01*
X0107897Y0154924D01*
X0107793Y0155039D01*
X0107693Y0155156D01*
X0107595Y0155276D01*
X0107501Y0155399D01*
X0107410Y0155523D01*
X0107322Y0155651D01*
X0107237Y0155780D01*
X0107156Y0155911D01*
X0107078Y0156045D01*
X0107004Y0156180D01*
X0106933Y0156317D01*
X0106866Y0156457D01*
X0106802Y0156597D01*
X0106742Y0156740D01*
X0106686Y0156883D01*
X0106633Y0157029D01*
X0106584Y0157175D01*
X0106539Y0157323D01*
X0106498Y0157472D01*
X0106460Y0157622D01*
X0106427Y0157773D01*
X0106397Y0157924D01*
X0106371Y0158077D01*
X0106350Y0158230D01*
X0106332Y0158383D01*
X0106318Y0158537D01*
X0106308Y0158691D01*
X0106302Y0158846D01*
X0106300Y0159000D01*
X0204700Y0159000D02*
X0204702Y0159154D01*
X0204708Y0159309D01*
X0204718Y0159463D01*
X0204732Y0159617D01*
X0204750Y0159770D01*
X0204771Y0159923D01*
X0204797Y0160076D01*
X0204827Y0160227D01*
X0204860Y0160378D01*
X0204898Y0160528D01*
X0204939Y0160677D01*
X0204984Y0160825D01*
X0205033Y0160971D01*
X0205086Y0161117D01*
X0205142Y0161260D01*
X0205202Y0161403D01*
X0205266Y0161543D01*
X0205333Y0161683D01*
X0205404Y0161820D01*
X0205478Y0161955D01*
X0205556Y0162089D01*
X0205637Y0162220D01*
X0205722Y0162349D01*
X0205810Y0162477D01*
X0205901Y0162601D01*
X0205995Y0162724D01*
X0206093Y0162844D01*
X0206193Y0162961D01*
X0206297Y0163076D01*
X0206403Y0163188D01*
X0206512Y0163297D01*
X0206624Y0163403D01*
X0206739Y0163507D01*
X0206856Y0163607D01*
X0206976Y0163705D01*
X0207099Y0163799D01*
X0207223Y0163890D01*
X0207351Y0163978D01*
X0207480Y0164063D01*
X0207611Y0164144D01*
X0207745Y0164222D01*
X0207880Y0164296D01*
X0208017Y0164367D01*
X0208157Y0164434D01*
X0208297Y0164498D01*
X0208440Y0164558D01*
X0208583Y0164614D01*
X0208729Y0164667D01*
X0208875Y0164716D01*
X0209023Y0164761D01*
X0209172Y0164802D01*
X0209322Y0164840D01*
X0209473Y0164873D01*
X0209624Y0164903D01*
X0209777Y0164929D01*
X0209930Y0164950D01*
X0210083Y0164968D01*
X0210237Y0164982D01*
X0210391Y0164992D01*
X0210546Y0164998D01*
X0210700Y0165000D01*
X0210854Y0164998D01*
X0211009Y0164992D01*
X0211163Y0164982D01*
X0211317Y0164968D01*
X0211470Y0164950D01*
X0211623Y0164929D01*
X0211776Y0164903D01*
X0211927Y0164873D01*
X0212078Y0164840D01*
X0212228Y0164802D01*
X0212377Y0164761D01*
X0212525Y0164716D01*
X0212671Y0164667D01*
X0212817Y0164614D01*
X0212960Y0164558D01*
X0213103Y0164498D01*
X0213243Y0164434D01*
X0213383Y0164367D01*
X0213520Y0164296D01*
X0213655Y0164222D01*
X0213789Y0164144D01*
X0213920Y0164063D01*
X0214049Y0163978D01*
X0214177Y0163890D01*
X0214301Y0163799D01*
X0214424Y0163705D01*
X0214544Y0163607D01*
X0214661Y0163507D01*
X0214776Y0163403D01*
X0214888Y0163297D01*
X0214997Y0163188D01*
X0215103Y0163076D01*
X0215207Y0162961D01*
X0215307Y0162844D01*
X0215405Y0162724D01*
X0215499Y0162601D01*
X0215590Y0162477D01*
X0215678Y0162349D01*
X0215763Y0162220D01*
X0215844Y0162089D01*
X0215922Y0161955D01*
X0215996Y0161820D01*
X0216067Y0161683D01*
X0216134Y0161543D01*
X0216198Y0161403D01*
X0216258Y0161260D01*
X0216314Y0161117D01*
X0216367Y0160971D01*
X0216416Y0160825D01*
X0216461Y0160677D01*
X0216502Y0160528D01*
X0216540Y0160378D01*
X0216573Y0160227D01*
X0216603Y0160076D01*
X0216629Y0159923D01*
X0216650Y0159770D01*
X0216668Y0159617D01*
X0216682Y0159463D01*
X0216692Y0159309D01*
X0216698Y0159154D01*
X0216700Y0159000D01*
X0216698Y0158846D01*
X0216692Y0158691D01*
X0216682Y0158537D01*
X0216668Y0158383D01*
X0216650Y0158230D01*
X0216629Y0158077D01*
X0216603Y0157924D01*
X0216573Y0157773D01*
X0216540Y0157622D01*
X0216502Y0157472D01*
X0216461Y0157323D01*
X0216416Y0157175D01*
X0216367Y0157029D01*
X0216314Y0156883D01*
X0216258Y0156740D01*
X0216198Y0156597D01*
X0216134Y0156457D01*
X0216067Y0156317D01*
X0215996Y0156180D01*
X0215922Y0156045D01*
X0215844Y0155911D01*
X0215763Y0155780D01*
X0215678Y0155651D01*
X0215590Y0155523D01*
X0215499Y0155399D01*
X0215405Y0155276D01*
X0215307Y0155156D01*
X0215207Y0155039D01*
X0215103Y0154924D01*
X0214997Y0154812D01*
X0214888Y0154703D01*
X0214776Y0154597D01*
X0214661Y0154493D01*
X0214544Y0154393D01*
X0214424Y0154295D01*
X0214301Y0154201D01*
X0214177Y0154110D01*
X0214049Y0154022D01*
X0213920Y0153937D01*
X0213789Y0153856D01*
X0213655Y0153778D01*
X0213520Y0153704D01*
X0213383Y0153633D01*
X0213243Y0153566D01*
X0213103Y0153502D01*
X0212960Y0153442D01*
X0212817Y0153386D01*
X0212671Y0153333D01*
X0212525Y0153284D01*
X0212377Y0153239D01*
X0212228Y0153198D01*
X0212078Y0153160D01*
X0211927Y0153127D01*
X0211776Y0153097D01*
X0211623Y0153071D01*
X0211470Y0153050D01*
X0211317Y0153032D01*
X0211163Y0153018D01*
X0211009Y0153008D01*
X0210854Y0153002D01*
X0210700Y0153000D01*
X0210546Y0153002D01*
X0210391Y0153008D01*
X0210237Y0153018D01*
X0210083Y0153032D01*
X0209930Y0153050D01*
X0209777Y0153071D01*
X0209624Y0153097D01*
X0209473Y0153127D01*
X0209322Y0153160D01*
X0209172Y0153198D01*
X0209023Y0153239D01*
X0208875Y0153284D01*
X0208729Y0153333D01*
X0208583Y0153386D01*
X0208440Y0153442D01*
X0208297Y0153502D01*
X0208157Y0153566D01*
X0208017Y0153633D01*
X0207880Y0153704D01*
X0207745Y0153778D01*
X0207611Y0153856D01*
X0207480Y0153937D01*
X0207351Y0154022D01*
X0207223Y0154110D01*
X0207099Y0154201D01*
X0206976Y0154295D01*
X0206856Y0154393D01*
X0206739Y0154493D01*
X0206624Y0154597D01*
X0206512Y0154703D01*
X0206403Y0154812D01*
X0206297Y0154924D01*
X0206193Y0155039D01*
X0206093Y0155156D01*
X0205995Y0155276D01*
X0205901Y0155399D01*
X0205810Y0155523D01*
X0205722Y0155651D01*
X0205637Y0155780D01*
X0205556Y0155911D01*
X0205478Y0156045D01*
X0205404Y0156180D01*
X0205333Y0156317D01*
X0205266Y0156457D01*
X0205202Y0156597D01*
X0205142Y0156740D01*
X0205086Y0156883D01*
X0205033Y0157029D01*
X0204984Y0157175D01*
X0204939Y0157323D01*
X0204898Y0157472D01*
X0204860Y0157622D01*
X0204827Y0157773D01*
X0204797Y0157924D01*
X0204771Y0158077D01*
X0204750Y0158230D01*
X0204732Y0158383D01*
X0204718Y0158537D01*
X0204708Y0158691D01*
X0204702Y0158846D01*
X0204700Y0159000D01*
D11*
X0025400Y0086400D02*
X0017600Y0086400D01*
X0017600Y0066600D02*
X0025400Y0066600D01*
X0025400Y0036400D02*
X0017600Y0036400D01*
X0017600Y0016600D02*
X0025400Y0016600D01*
D12*
X0129000Y0018250D02*
X0129000Y0012250D01*
X0139000Y0012250D02*
X0139000Y0018250D01*
X0149000Y0018250D02*
X0149000Y0012250D01*
X0069500Y0131500D02*
X0063500Y0131500D01*
X0063500Y0141500D02*
X0069500Y0141500D01*
X0069500Y0151500D02*
X0063500Y0151500D01*
D13*
X0092760Y0095250D03*
X0100240Y0095250D03*
X0090437Y0076500D03*
X0082563Y0076500D03*
D14*
X0066500Y0102760D03*
X0066500Y0110240D03*
X0146500Y0081490D03*
X0146500Y0074010D03*
X0146500Y0056490D03*
X0146500Y0049010D03*
D15*
X0090457Y0039689D03*
X0087898Y0039689D03*
X0085339Y0039689D03*
X0082780Y0039689D03*
X0080220Y0039689D03*
X0077661Y0039689D03*
X0075102Y0039689D03*
X0072543Y0039689D03*
X0072543Y0063311D03*
X0075102Y0063311D03*
X0077661Y0063311D03*
X0080220Y0063311D03*
X0082780Y0063311D03*
X0085339Y0063311D03*
X0087898Y0063311D03*
X0090457Y0063311D03*
D16*
X0139700Y0120300D03*
X0150600Y0120300D03*
X0161500Y0120300D03*
X0172400Y0120300D03*
X0183300Y0120300D03*
X0177850Y0131500D03*
X0166950Y0131500D03*
X0156050Y0131500D03*
X0145150Y0131500D03*
D17*
X0166500Y0101500D03*
X0176500Y0101500D03*
X0176500Y0091500D03*
X0166500Y0091500D03*
X0166500Y0081500D03*
X0166500Y0071500D03*
X0176500Y0071500D03*
X0176500Y0081500D03*
X0176500Y0061500D03*
X0176500Y0051500D03*
X0166500Y0051500D03*
X0166500Y0061500D03*
X0166500Y0041500D03*
X0176500Y0041500D03*
X0176500Y0031500D03*
X0176500Y0021500D03*
X0166500Y0021500D03*
X0166500Y0031500D03*
X0166500Y0011500D03*
X0176500Y0011500D03*
D18*
X0021500Y0036400D02*
X0021500Y0066600D01*
D19*
X0026434Y0071800D02*
X0016566Y0071800D01*
X0014654Y0071008D01*
X0013192Y0069546D01*
X0012400Y0067634D01*
X0012400Y0065566D01*
X0013192Y0063654D01*
X0014654Y0062192D01*
X0016566Y0061400D01*
X0017700Y0061400D01*
X0017700Y0041600D01*
X0016566Y0041600D01*
X0014654Y0040808D01*
X0013192Y0039346D01*
X0012400Y0037434D01*
X0012400Y0035366D01*
X0013192Y0033454D01*
X0014654Y0031992D01*
X0016566Y0031200D01*
X0026434Y0031200D01*
X0028346Y0031992D01*
X0029029Y0032675D01*
X0055704Y0006000D01*
X0006000Y0006000D01*
X0006000Y0181951D01*
X0225671Y0181951D01*
X0225671Y0006000D01*
X0147296Y0006000D01*
X0149246Y0007950D01*
X0149855Y0007950D01*
X0151436Y0008605D01*
X0152645Y0009814D01*
X0153300Y0011395D01*
X0153300Y0019105D01*
X0152645Y0020686D01*
X0151436Y0021895D01*
X0150800Y0022159D01*
X0150800Y0023496D01*
X0145800Y0028496D01*
X0144746Y0029550D01*
X0128496Y0029550D01*
X0122050Y0035996D01*
X0122050Y0045719D01*
X0122770Y0045719D01*
X0123531Y0046480D01*
X0123531Y0047206D01*
X0125264Y0047210D01*
X0142050Y0047210D01*
X0142050Y0045912D01*
X0142812Y0045151D01*
X0150188Y0045151D01*
X0150950Y0045912D01*
X0150950Y0052107D01*
X0150307Y0052750D01*
X0150950Y0053393D01*
X0150950Y0054690D01*
X0162236Y0054690D01*
X0164746Y0057200D01*
X0168281Y0057200D01*
X0170800Y0059719D01*
X0170800Y0063281D01*
X0168281Y0065800D01*
X0164719Y0065800D01*
X0162200Y0063281D01*
X0162200Y0059746D01*
X0160745Y0058290D01*
X0150950Y0058290D01*
X0150950Y0059588D01*
X0150188Y0060349D01*
X0142812Y0060349D01*
X0142050Y0059588D01*
X0142050Y0058300D01*
X0100846Y0058300D01*
X0114746Y0072200D01*
X0142050Y0072200D01*
X0142050Y0070912D01*
X0142812Y0070151D01*
X0150188Y0070151D01*
X0150950Y0070912D01*
X0150950Y0072210D01*
X0162200Y0072210D01*
X0162200Y0069719D01*
X0164719Y0067200D01*
X0168281Y0067200D01*
X0170800Y0069719D01*
X0170800Y0073281D01*
X0168281Y0075800D01*
X0164746Y0075800D01*
X0164736Y0075810D01*
X0150950Y0075810D01*
X0150950Y0077107D01*
X0150307Y0077750D01*
X0150950Y0078393D01*
X0150950Y0084588D01*
X0150188Y0085349D01*
X0148300Y0085349D01*
X0148300Y0087004D01*
X0159746Y0098450D01*
X0163469Y0098450D01*
X0164719Y0097200D01*
X0168281Y0097200D01*
X0170800Y0099719D01*
X0170800Y0103281D01*
X0168281Y0105800D01*
X0164719Y0105800D01*
X0162200Y0103281D01*
X0162200Y0102050D01*
X0131031Y0102050D01*
X0131031Y0102770D01*
X0130270Y0103531D01*
X0125230Y0103531D01*
X0124469Y0102770D01*
X0124469Y0097730D01*
X0125230Y0096969D01*
X0130270Y0096969D01*
X0131031Y0097730D01*
X0131031Y0098450D01*
X0154654Y0098450D01*
X0144700Y0088496D01*
X0144700Y0085349D01*
X0142812Y0085349D01*
X0142050Y0084588D01*
X0142050Y0078393D01*
X0142693Y0077750D01*
X0142050Y0077107D01*
X0142050Y0075800D01*
X0113254Y0075800D01*
X0112200Y0074746D01*
X0094504Y0057050D01*
X0090996Y0057050D01*
X0089698Y0058348D01*
X0089698Y0060043D01*
X0091586Y0060043D01*
X0092347Y0060804D01*
X0092347Y0064802D01*
X0102246Y0074700D01*
X0108496Y0074700D01*
X0110764Y0076969D01*
X0114020Y0076969D01*
X0114781Y0077730D01*
X0114781Y0082770D01*
X0114020Y0083531D01*
X0108980Y0083531D01*
X0108219Y0082770D01*
X0108219Y0079514D01*
X0107004Y0078300D01*
X0103300Y0078300D01*
X0103300Y0090800D01*
X0103338Y0090800D01*
X0104099Y0091562D01*
X0104099Y0098938D01*
X0103338Y0099700D01*
X0097143Y0099700D01*
X0096500Y0099057D01*
X0095857Y0099700D01*
X0089662Y0099700D01*
X0088901Y0098938D01*
X0088901Y0093937D01*
X0088637Y0093673D01*
X0088637Y0080950D01*
X0087339Y0080950D01*
X0086578Y0080188D01*
X0086578Y0080012D01*
X0086520Y0080229D01*
X0086322Y0080571D01*
X0086043Y0080850D01*
X0085701Y0081047D01*
X0085320Y0081150D01*
X0083063Y0081150D01*
X0083063Y0077000D01*
X0082063Y0077000D01*
X0082063Y0081150D01*
X0079806Y0081150D01*
X0079425Y0081047D01*
X0079083Y0080850D01*
X0078804Y0080571D01*
X0078606Y0080229D01*
X0078504Y0079847D01*
X0078504Y0077000D01*
X0082063Y0077000D01*
X0082063Y0076000D01*
X0083063Y0076000D01*
X0083063Y0071850D01*
X0085320Y0071850D01*
X0085701Y0071953D01*
X0086043Y0072150D01*
X0086322Y0072429D01*
X0086520Y0072771D01*
X0086578Y0072988D01*
X0086578Y0072812D01*
X0087172Y0072218D01*
X0083539Y0068584D01*
X0083539Y0066780D01*
X0082780Y0066780D01*
X0082780Y0063311D01*
X0082780Y0059843D01*
X0083539Y0059843D01*
X0083539Y0058584D01*
X0078254Y0053300D01*
X0035854Y0053300D01*
X0025300Y0042746D01*
X0025300Y0061400D01*
X0026434Y0061400D01*
X0028346Y0062192D01*
X0029808Y0063654D01*
X0030600Y0065566D01*
X0030600Y0067634D01*
X0029808Y0069546D01*
X0028346Y0071008D01*
X0026434Y0071800D01*
X0027410Y0071396D02*
X0086350Y0071396D01*
X0086287Y0072394D02*
X0086996Y0072394D01*
X0085352Y0070397D02*
X0028957Y0070397D01*
X0029869Y0069399D02*
X0084353Y0069399D01*
X0083539Y0068400D02*
X0030283Y0068400D01*
X0030600Y0067402D02*
X0083539Y0067402D01*
X0082779Y0066780D02*
X0081991Y0066780D01*
X0081610Y0066677D01*
X0081383Y0066546D01*
X0081349Y0066580D01*
X0079091Y0066580D01*
X0078941Y0066429D01*
X0078790Y0066580D01*
X0076532Y0066580D01*
X0076382Y0066429D01*
X0076231Y0066580D01*
X0073973Y0066580D01*
X0073823Y0066429D01*
X0073672Y0066580D01*
X0071414Y0066580D01*
X0070653Y0065818D01*
X0070653Y0060804D01*
X0071414Y0060043D01*
X0073672Y0060043D01*
X0073823Y0060193D01*
X0073973Y0060043D01*
X0076231Y0060043D01*
X0076382Y0060193D01*
X0076532Y0060043D01*
X0078790Y0060043D01*
X0078941Y0060193D01*
X0079091Y0060043D01*
X0081349Y0060043D01*
X0081383Y0060076D01*
X0081610Y0059945D01*
X0081991Y0059843D01*
X0082779Y0059843D01*
X0082779Y0063311D01*
X0082780Y0063311D01*
X0082779Y0063311D01*
X0082779Y0066780D01*
X0082779Y0066403D02*
X0082780Y0066403D01*
X0082779Y0065405D02*
X0082780Y0065405D01*
X0082779Y0064406D02*
X0082780Y0064406D01*
X0082779Y0063408D02*
X0082780Y0063408D01*
X0082779Y0062409D02*
X0082780Y0062409D01*
X0082779Y0061411D02*
X0082780Y0061411D01*
X0082779Y0060412D02*
X0082780Y0060412D01*
X0083539Y0059414D02*
X0025300Y0059414D01*
X0025300Y0060412D02*
X0071045Y0060412D01*
X0070653Y0061411D02*
X0026460Y0061411D01*
X0028563Y0062409D02*
X0070653Y0062409D01*
X0070653Y0063408D02*
X0029562Y0063408D01*
X0030120Y0064406D02*
X0070653Y0064406D01*
X0070653Y0065405D02*
X0030533Y0065405D01*
X0030600Y0066403D02*
X0071238Y0066403D01*
X0078804Y0072429D02*
X0079083Y0072150D01*
X0079425Y0071953D01*
X0079806Y0071850D01*
X0082063Y0071850D01*
X0082063Y0076000D01*
X0078504Y0076000D01*
X0078504Y0073153D01*
X0078606Y0072771D01*
X0078804Y0072429D01*
X0078839Y0072394D02*
X0006000Y0072394D01*
X0006000Y0071396D02*
X0015590Y0071396D01*
X0014043Y0070397D02*
X0006000Y0070397D01*
X0006000Y0069399D02*
X0013131Y0069399D01*
X0012717Y0068400D02*
X0006000Y0068400D01*
X0006000Y0067402D02*
X0012400Y0067402D01*
X0012400Y0066403D02*
X0006000Y0066403D01*
X0006000Y0065405D02*
X0012467Y0065405D01*
X0012880Y0064406D02*
X0006000Y0064406D01*
X0006000Y0063408D02*
X0013438Y0063408D01*
X0014437Y0062409D02*
X0006000Y0062409D01*
X0006000Y0061411D02*
X0016540Y0061411D01*
X0017700Y0060412D02*
X0006000Y0060412D01*
X0006000Y0059414D02*
X0017700Y0059414D01*
X0017700Y0058415D02*
X0006000Y0058415D01*
X0006000Y0057417D02*
X0017700Y0057417D01*
X0017700Y0056418D02*
X0006000Y0056418D01*
X0006000Y0055420D02*
X0017700Y0055420D01*
X0017700Y0054421D02*
X0006000Y0054421D01*
X0006000Y0053423D02*
X0017700Y0053423D01*
X0017700Y0052424D02*
X0006000Y0052424D01*
X0006000Y0051426D02*
X0017700Y0051426D01*
X0017700Y0050427D02*
X0006000Y0050427D01*
X0006000Y0049429D02*
X0017700Y0049429D01*
X0017700Y0048430D02*
X0006000Y0048430D01*
X0006000Y0047432D02*
X0017700Y0047432D01*
X0017700Y0046433D02*
X0006000Y0046433D01*
X0006000Y0045434D02*
X0017700Y0045434D01*
X0017700Y0044436D02*
X0006000Y0044436D01*
X0006000Y0043437D02*
X0017700Y0043437D01*
X0017700Y0042439D02*
X0006000Y0042439D01*
X0006000Y0041440D02*
X0016180Y0041440D01*
X0014288Y0040442D02*
X0006000Y0040442D01*
X0006000Y0039443D02*
X0013290Y0039443D01*
X0012819Y0038445D02*
X0006000Y0038445D01*
X0006000Y0037446D02*
X0012405Y0037446D01*
X0012400Y0036448D02*
X0006000Y0036448D01*
X0006000Y0035449D02*
X0012400Y0035449D01*
X0012779Y0034451D02*
X0006000Y0034451D01*
X0006000Y0033452D02*
X0013194Y0033452D01*
X0014192Y0032454D02*
X0006000Y0032454D01*
X0006000Y0031455D02*
X0015949Y0031455D01*
X0021500Y0036400D02*
X0027850Y0036400D01*
X0057750Y0006500D01*
X0145250Y0006500D01*
X0149000Y0010250D01*
X0149000Y0015250D01*
X0149000Y0022750D01*
X0144000Y0027750D01*
X0127750Y0027750D01*
X0120250Y0035250D01*
X0120250Y0049000D01*
X0125260Y0049010D01*
X0146500Y0049010D01*
X0150950Y0049429D02*
X0162490Y0049429D01*
X0162200Y0049719D02*
X0164719Y0047200D01*
X0168281Y0047200D01*
X0170800Y0049719D01*
X0170800Y0053281D01*
X0168281Y0055800D01*
X0164719Y0055800D01*
X0162200Y0053281D01*
X0162200Y0049719D01*
X0162200Y0050427D02*
X0150950Y0050427D01*
X0150950Y0051426D02*
X0162200Y0051426D01*
X0162200Y0052424D02*
X0150633Y0052424D01*
X0150950Y0053423D02*
X0162341Y0053423D01*
X0163340Y0054421D02*
X0150950Y0054421D01*
X0150950Y0058415D02*
X0160870Y0058415D01*
X0161868Y0059414D02*
X0150950Y0059414D01*
X0146500Y0056490D02*
X0161490Y0056490D01*
X0166500Y0061500D01*
X0169496Y0058415D02*
X0173221Y0058415D01*
X0174219Y0057417D02*
X0168498Y0057417D01*
X0168661Y0055420D02*
X0174056Y0055420D01*
X0174636Y0056000D02*
X0172000Y0053364D01*
X0172000Y0052000D01*
X0176000Y0052000D01*
X0176000Y0056000D01*
X0174636Y0056000D01*
X0174636Y0057000D02*
X0172000Y0059636D01*
X0172000Y0061000D01*
X0176000Y0061000D01*
X0176000Y0062000D01*
X0176000Y0066000D01*
X0174636Y0066000D01*
X0172000Y0063364D01*
X0172000Y0062000D01*
X0176000Y0062000D01*
X0177000Y0062000D01*
X0177000Y0066000D01*
X0178364Y0066000D01*
X0181000Y0063364D01*
X0181000Y0062000D01*
X0177000Y0062000D01*
X0177000Y0061000D01*
X0181000Y0061000D01*
X0181000Y0059636D01*
X0178364Y0057000D01*
X0177000Y0057000D01*
X0177000Y0061000D01*
X0176000Y0061000D01*
X0176000Y0057000D01*
X0174636Y0057000D01*
X0176000Y0057417D02*
X0177000Y0057417D01*
X0177000Y0058415D02*
X0176000Y0058415D01*
X0176000Y0059414D02*
X0177000Y0059414D01*
X0177000Y0060412D02*
X0176000Y0060412D01*
X0176000Y0061411D02*
X0170800Y0061411D01*
X0170800Y0062409D02*
X0172000Y0062409D01*
X0172044Y0063408D02*
X0170673Y0063408D01*
X0169675Y0064406D02*
X0173042Y0064406D01*
X0174041Y0065405D02*
X0168676Y0065405D01*
X0168483Y0067402D02*
X0174234Y0067402D01*
X0174636Y0067000D02*
X0172000Y0069636D01*
X0172000Y0071000D01*
X0176000Y0071000D01*
X0176000Y0072000D01*
X0176000Y0076000D01*
X0174636Y0076000D01*
X0172000Y0073364D01*
X0172000Y0072000D01*
X0176000Y0072000D01*
X0177000Y0072000D01*
X0177000Y0076000D01*
X0178364Y0076000D01*
X0181000Y0073364D01*
X0181000Y0072000D01*
X0177000Y0072000D01*
X0177000Y0071000D01*
X0181000Y0071000D01*
X0181000Y0069636D01*
X0178364Y0067000D01*
X0177000Y0067000D01*
X0177000Y0071000D01*
X0176000Y0071000D01*
X0176000Y0067000D01*
X0174636Y0067000D01*
X0176000Y0067402D02*
X0177000Y0067402D01*
X0177000Y0068400D02*
X0176000Y0068400D01*
X0176000Y0069399D02*
X0177000Y0069399D01*
X0177000Y0070397D02*
X0176000Y0070397D01*
X0176000Y0071396D02*
X0170800Y0071396D01*
X0170800Y0072394D02*
X0172000Y0072394D01*
X0172029Y0073393D02*
X0170688Y0073393D01*
X0169690Y0074391D02*
X0173027Y0074391D01*
X0174026Y0075390D02*
X0168691Y0075390D01*
X0168281Y0077200D02*
X0170800Y0079719D01*
X0170800Y0083281D01*
X0168281Y0085800D01*
X0164719Y0085800D01*
X0162200Y0083281D01*
X0162200Y0079719D01*
X0164719Y0077200D01*
X0168281Y0077200D01*
X0168468Y0077387D02*
X0174249Y0077387D01*
X0174636Y0077000D02*
X0172000Y0079636D01*
X0172000Y0081000D01*
X0176000Y0081000D01*
X0176000Y0082000D01*
X0176000Y0086000D01*
X0174636Y0086000D01*
X0172000Y0083364D01*
X0172000Y0082000D01*
X0176000Y0082000D01*
X0177000Y0082000D01*
X0177000Y0086000D01*
X0178364Y0086000D01*
X0181000Y0083364D01*
X0181000Y0082000D01*
X0177000Y0082000D01*
X0177000Y0081000D01*
X0181000Y0081000D01*
X0181000Y0079636D01*
X0178364Y0077000D01*
X0177000Y0077000D01*
X0177000Y0081000D01*
X0176000Y0081000D01*
X0176000Y0077000D01*
X0174636Y0077000D01*
X0176000Y0077387D02*
X0177000Y0077387D01*
X0177000Y0078385D02*
X0176000Y0078385D01*
X0176000Y0079384D02*
X0177000Y0079384D01*
X0177000Y0080382D02*
X0176000Y0080382D01*
X0176000Y0081381D02*
X0170800Y0081381D01*
X0170800Y0082379D02*
X0172000Y0082379D01*
X0172014Y0083378D02*
X0170703Y0083378D01*
X0169705Y0084376D02*
X0173012Y0084376D01*
X0174011Y0085375D02*
X0168706Y0085375D01*
X0168281Y0087200D02*
X0164719Y0087200D01*
X0162200Y0089719D01*
X0162200Y0093281D01*
X0164719Y0095800D01*
X0168281Y0095800D01*
X0170800Y0093281D01*
X0170800Y0089719D01*
X0168281Y0087200D01*
X0168453Y0087372D02*
X0174264Y0087372D01*
X0174636Y0087000D02*
X0172000Y0089636D01*
X0172000Y0091000D01*
X0176000Y0091000D01*
X0176000Y0092000D01*
X0176000Y0096000D01*
X0174636Y0096000D01*
X0172000Y0093364D01*
X0172000Y0092000D01*
X0176000Y0092000D01*
X0177000Y0092000D01*
X0177000Y0096000D01*
X0178364Y0096000D01*
X0181000Y0093364D01*
X0181000Y0092000D01*
X0177000Y0092000D01*
X0177000Y0091000D01*
X0181000Y0091000D01*
X0181000Y0089636D01*
X0178364Y0087000D01*
X0177000Y0087000D01*
X0177000Y0091000D01*
X0176000Y0091000D01*
X0176000Y0087000D01*
X0174636Y0087000D01*
X0176000Y0087372D02*
X0177000Y0087372D01*
X0177000Y0088370D02*
X0176000Y0088370D01*
X0176000Y0089369D02*
X0177000Y0089369D01*
X0177000Y0090368D02*
X0176000Y0090368D01*
X0176000Y0091366D02*
X0170800Y0091366D01*
X0170800Y0090368D02*
X0172000Y0090368D01*
X0172267Y0089369D02*
X0170450Y0089369D01*
X0169452Y0088370D02*
X0173266Y0088370D01*
X0176000Y0085375D02*
X0177000Y0085375D01*
X0177000Y0084376D02*
X0176000Y0084376D01*
X0176000Y0083378D02*
X0177000Y0083378D01*
X0177000Y0082379D02*
X0176000Y0082379D01*
X0177000Y0081381D02*
X0225671Y0081381D01*
X0225671Y0082379D02*
X0181000Y0082379D01*
X0180986Y0083378D02*
X0225671Y0083378D01*
X0225671Y0084376D02*
X0179987Y0084376D01*
X0178989Y0085375D02*
X0225671Y0085375D01*
X0225671Y0086373D02*
X0148300Y0086373D01*
X0148300Y0085375D02*
X0164294Y0085375D01*
X0163295Y0084376D02*
X0150950Y0084376D01*
X0150950Y0083378D02*
X0162297Y0083378D01*
X0162200Y0082379D02*
X0150950Y0082379D01*
X0150950Y0081381D02*
X0162200Y0081381D01*
X0162200Y0080382D02*
X0150950Y0080382D01*
X0150950Y0079384D02*
X0162535Y0079384D01*
X0163534Y0078385D02*
X0150942Y0078385D01*
X0150670Y0077387D02*
X0164532Y0077387D01*
X0163990Y0074010D02*
X0166500Y0071500D01*
X0170800Y0070397D02*
X0172000Y0070397D01*
X0172237Y0069399D02*
X0170480Y0069399D01*
X0169481Y0068400D02*
X0173236Y0068400D01*
X0176000Y0065405D02*
X0177000Y0065405D01*
X0177000Y0064406D02*
X0176000Y0064406D01*
X0176000Y0063408D02*
X0177000Y0063408D01*
X0177000Y0062409D02*
X0176000Y0062409D01*
X0177000Y0061411D02*
X0225671Y0061411D01*
X0225671Y0062409D02*
X0181000Y0062409D01*
X0180956Y0063408D02*
X0225671Y0063408D01*
X0225671Y0064406D02*
X0179958Y0064406D01*
X0178959Y0065405D02*
X0225671Y0065405D01*
X0225671Y0066403D02*
X0108949Y0066403D01*
X0107950Y0065405D02*
X0164324Y0065405D01*
X0163325Y0064406D02*
X0106952Y0064406D01*
X0105953Y0063408D02*
X0162327Y0063408D01*
X0162200Y0062409D02*
X0104955Y0062409D01*
X0103956Y0061411D02*
X0162200Y0061411D01*
X0162200Y0060412D02*
X0102958Y0060412D01*
X0101959Y0059414D02*
X0142050Y0059414D01*
X0142050Y0058415D02*
X0100961Y0058415D01*
X0101500Y0056500D02*
X0146490Y0056500D01*
X0146500Y0056490D01*
X0142050Y0054700D02*
X0142050Y0053393D01*
X0142693Y0052750D01*
X0142050Y0052107D01*
X0142050Y0050810D01*
X0126003Y0050810D01*
X0126002Y0050811D01*
X0125257Y0050810D01*
X0124514Y0050810D01*
X0124513Y0050808D01*
X0123531Y0050806D01*
X0123531Y0051520D01*
X0122770Y0052281D01*
X0117730Y0052281D01*
X0116969Y0051520D01*
X0116969Y0046480D01*
X0117730Y0045719D01*
X0118450Y0045719D01*
X0118450Y0034504D01*
X0119504Y0033450D01*
X0127004Y0025950D01*
X0143254Y0025950D01*
X0147091Y0022113D01*
X0146564Y0021895D01*
X0145355Y0020686D01*
X0144700Y0019105D01*
X0144700Y0011395D01*
X0145355Y0009814D01*
X0145687Y0009482D01*
X0144504Y0008300D01*
X0141160Y0008300D01*
X0141359Y0008401D01*
X0141932Y0008818D01*
X0142432Y0009318D01*
X0142849Y0009891D01*
X0143170Y0010523D01*
X0143389Y0011196D01*
X0143500Y0011896D01*
X0143500Y0014750D01*
X0139500Y0014750D01*
X0139500Y0015750D01*
X0138500Y0015750D01*
X0138500Y0022727D01*
X0137946Y0022639D01*
X0137273Y0022420D01*
X0136641Y0022099D01*
X0136068Y0021682D01*
X0135568Y0021182D01*
X0135151Y0020609D01*
X0134830Y0019977D01*
X0134611Y0019304D01*
X0134500Y0018604D01*
X0134500Y0015750D01*
X0138500Y0015750D01*
X0138500Y0014750D01*
X0134500Y0014750D01*
X0134500Y0011896D01*
X0134611Y0011196D01*
X0134830Y0010523D01*
X0135151Y0009891D01*
X0135568Y0009318D01*
X0136068Y0008818D01*
X0136641Y0008401D01*
X0136840Y0008300D01*
X0130700Y0008300D01*
X0131436Y0008605D01*
X0132645Y0009814D01*
X0133300Y0011395D01*
X0133300Y0019105D01*
X0132645Y0020686D01*
X0131436Y0021895D01*
X0129855Y0022550D01*
X0128145Y0022550D01*
X0126564Y0021895D01*
X0125355Y0020686D01*
X0124700Y0019105D01*
X0124700Y0017050D01*
X0109746Y0017050D01*
X0090375Y0036420D01*
X0091586Y0036420D01*
X0092347Y0037182D01*
X0092347Y0042196D01*
X0092257Y0042286D01*
X0092257Y0044711D01*
X0102246Y0054700D01*
X0142050Y0054700D01*
X0142050Y0054421D02*
X0101967Y0054421D01*
X0100968Y0053423D02*
X0142050Y0053423D01*
X0142367Y0052424D02*
X0099970Y0052424D01*
X0098971Y0051426D02*
X0116969Y0051426D01*
X0116969Y0050427D02*
X0097973Y0050427D01*
X0096974Y0049429D02*
X0116969Y0049429D01*
X0116969Y0048430D02*
X0095976Y0048430D01*
X0094977Y0047432D02*
X0116969Y0047432D01*
X0117016Y0046433D02*
X0093979Y0046433D01*
X0092980Y0045434D02*
X0118450Y0045434D01*
X0118450Y0044436D02*
X0092257Y0044436D01*
X0092257Y0043437D02*
X0118450Y0043437D01*
X0118450Y0042439D02*
X0092257Y0042439D01*
X0092347Y0041440D02*
X0118450Y0041440D01*
X0118450Y0040442D02*
X0092347Y0040442D01*
X0092347Y0039443D02*
X0118450Y0039443D01*
X0118450Y0038445D02*
X0092347Y0038445D01*
X0092347Y0037446D02*
X0118450Y0037446D01*
X0118450Y0036448D02*
X0091613Y0036448D01*
X0091346Y0035449D02*
X0118450Y0035449D01*
X0118504Y0034451D02*
X0092345Y0034451D01*
X0093343Y0033452D02*
X0119502Y0033452D01*
X0120501Y0032454D02*
X0094342Y0032454D01*
X0095340Y0031455D02*
X0121499Y0031455D01*
X0122498Y0030457D02*
X0096339Y0030457D01*
X0097337Y0029458D02*
X0123496Y0029458D01*
X0124495Y0028460D02*
X0098336Y0028460D01*
X0099334Y0027461D02*
X0125493Y0027461D01*
X0126492Y0026463D02*
X0100333Y0026463D01*
X0101331Y0025464D02*
X0143740Y0025464D01*
X0144739Y0024466D02*
X0102330Y0024466D01*
X0103328Y0023467D02*
X0145737Y0023467D01*
X0146736Y0022469D02*
X0140578Y0022469D01*
X0140727Y0022420D02*
X0140054Y0022639D01*
X0139500Y0022727D01*
X0139500Y0015750D01*
X0143500Y0015750D01*
X0143500Y0018604D01*
X0143389Y0019304D01*
X0143170Y0019977D01*
X0142849Y0020609D01*
X0142432Y0021182D01*
X0141932Y0021682D01*
X0141359Y0022099D01*
X0140727Y0022420D01*
X0139500Y0022469D02*
X0138500Y0022469D01*
X0138500Y0021470D02*
X0139500Y0021470D01*
X0139500Y0020472D02*
X0138500Y0020472D01*
X0138500Y0019473D02*
X0139500Y0019473D01*
X0139500Y0018475D02*
X0138500Y0018475D01*
X0138500Y0017476D02*
X0139500Y0017476D01*
X0139500Y0016478D02*
X0138500Y0016478D01*
X0138500Y0015479D02*
X0133300Y0015479D01*
X0133300Y0014481D02*
X0134500Y0014481D01*
X0134500Y0013482D02*
X0133300Y0013482D01*
X0133300Y0012484D02*
X0134500Y0012484D01*
X0134565Y0011485D02*
X0133300Y0011485D01*
X0132924Y0010487D02*
X0134848Y0010487D01*
X0135444Y0009488D02*
X0132319Y0009488D01*
X0131158Y0008490D02*
X0136520Y0008490D01*
X0141480Y0008490D02*
X0144694Y0008490D01*
X0145681Y0009488D02*
X0142556Y0009488D01*
X0143152Y0010487D02*
X0145076Y0010487D01*
X0144700Y0011485D02*
X0143435Y0011485D01*
X0143500Y0012484D02*
X0144700Y0012484D01*
X0144700Y0013482D02*
X0143500Y0013482D01*
X0143500Y0014481D02*
X0144700Y0014481D01*
X0144700Y0015479D02*
X0139500Y0015479D01*
X0143500Y0016478D02*
X0144700Y0016478D01*
X0144700Y0017476D02*
X0143500Y0017476D01*
X0143500Y0018475D02*
X0144700Y0018475D01*
X0144852Y0019473D02*
X0143334Y0019473D01*
X0142918Y0020472D02*
X0145266Y0020472D01*
X0146139Y0021470D02*
X0142144Y0021470D01*
X0137422Y0022469D02*
X0130051Y0022469D01*
X0131861Y0021470D02*
X0135856Y0021470D01*
X0135082Y0020472D02*
X0132734Y0020472D01*
X0133148Y0019473D02*
X0134666Y0019473D01*
X0134500Y0018475D02*
X0133300Y0018475D01*
X0133300Y0017476D02*
X0134500Y0017476D01*
X0134500Y0016478D02*
X0133300Y0016478D01*
X0129000Y0015250D02*
X0109000Y0015250D01*
X0087898Y0036352D01*
X0087898Y0039689D01*
X0090457Y0039689D02*
X0090457Y0045457D01*
X0101500Y0056500D01*
X0097867Y0060412D02*
X0091955Y0060412D01*
X0092347Y0061411D02*
X0098865Y0061411D01*
X0099864Y0062409D02*
X0092347Y0062409D01*
X0092347Y0063408D02*
X0100862Y0063408D01*
X0101861Y0064406D02*
X0092347Y0064406D01*
X0092950Y0065405D02*
X0102859Y0065405D01*
X0103858Y0066403D02*
X0093949Y0066403D01*
X0094947Y0067402D02*
X0104856Y0067402D01*
X0105855Y0068400D02*
X0095946Y0068400D01*
X0096944Y0069399D02*
X0106853Y0069399D01*
X0107852Y0070397D02*
X0097943Y0070397D01*
X0098941Y0071396D02*
X0108850Y0071396D01*
X0109849Y0072394D02*
X0099940Y0072394D01*
X0100938Y0073393D02*
X0110847Y0073393D01*
X0111846Y0074391D02*
X0101937Y0074391D01*
X0101500Y0076500D02*
X0107750Y0076500D01*
X0111500Y0080250D01*
X0114781Y0080382D02*
X0142050Y0080382D01*
X0142050Y0079384D02*
X0114781Y0079384D01*
X0114781Y0078385D02*
X0142058Y0078385D01*
X0142330Y0077387D02*
X0114438Y0077387D01*
X0112844Y0075390D02*
X0109185Y0075390D01*
X0110184Y0076388D02*
X0142050Y0076388D01*
X0142050Y0071396D02*
X0113941Y0071396D01*
X0112943Y0070397D02*
X0142565Y0070397D01*
X0146490Y0074000D02*
X0146500Y0074010D01*
X0163990Y0074010D01*
X0162200Y0071396D02*
X0150950Y0071396D01*
X0150435Y0070397D02*
X0162200Y0070397D01*
X0162520Y0069399D02*
X0111944Y0069399D01*
X0110946Y0068400D02*
X0163519Y0068400D01*
X0164517Y0067402D02*
X0109947Y0067402D01*
X0114000Y0074000D02*
X0146490Y0074000D01*
X0150950Y0076388D02*
X0225671Y0076388D01*
X0225671Y0075390D02*
X0178974Y0075390D01*
X0179973Y0074391D02*
X0225671Y0074391D01*
X0225671Y0073393D02*
X0180971Y0073393D01*
X0181000Y0072394D02*
X0225671Y0072394D01*
X0225671Y0071396D02*
X0177000Y0071396D01*
X0177000Y0072394D02*
X0176000Y0072394D01*
X0176000Y0073393D02*
X0177000Y0073393D01*
X0177000Y0074391D02*
X0176000Y0074391D01*
X0176000Y0075390D02*
X0177000Y0075390D01*
X0178751Y0077387D02*
X0225671Y0077387D01*
X0225671Y0078385D02*
X0179749Y0078385D01*
X0180748Y0079384D02*
X0225671Y0079384D01*
X0225671Y0080382D02*
X0181000Y0080382D01*
X0178736Y0087372D02*
X0225671Y0087372D01*
X0225671Y0088370D02*
X0179734Y0088370D01*
X0180733Y0089369D02*
X0225671Y0089369D01*
X0225671Y0090368D02*
X0181000Y0090368D01*
X0181000Y0092365D02*
X0225671Y0092365D01*
X0225671Y0093363D02*
X0181000Y0093363D01*
X0180002Y0094362D02*
X0225671Y0094362D01*
X0225671Y0095360D02*
X0179004Y0095360D01*
X0178281Y0097200D02*
X0180800Y0099719D01*
X0180800Y0103281D01*
X0178281Y0105800D01*
X0174719Y0105800D01*
X0172200Y0103281D01*
X0172200Y0099719D01*
X0174719Y0097200D01*
X0178281Y0097200D01*
X0178438Y0097357D02*
X0225671Y0097357D01*
X0225671Y0096359D02*
X0157654Y0096359D01*
X0158653Y0097357D02*
X0164562Y0097357D01*
X0163563Y0098356D02*
X0159651Y0098356D01*
X0159000Y0100250D02*
X0146500Y0087750D01*
X0146500Y0081490D01*
X0144700Y0085375D02*
X0103300Y0085375D01*
X0103300Y0086373D02*
X0144700Y0086373D01*
X0144700Y0087372D02*
X0103300Y0087372D01*
X0103300Y0088370D02*
X0144700Y0088370D01*
X0145573Y0089369D02*
X0103300Y0089369D01*
X0103300Y0090368D02*
X0146572Y0090368D01*
X0147570Y0091366D02*
X0103903Y0091366D01*
X0104099Y0092365D02*
X0148569Y0092365D01*
X0149567Y0093363D02*
X0104099Y0093363D01*
X0104099Y0094362D02*
X0150566Y0094362D01*
X0151564Y0095360D02*
X0104099Y0095360D01*
X0104099Y0096359D02*
X0152563Y0096359D01*
X0153562Y0097357D02*
X0130658Y0097357D01*
X0131031Y0098356D02*
X0154560Y0098356D01*
X0156656Y0095360D02*
X0164279Y0095360D01*
X0163280Y0094362D02*
X0155657Y0094362D01*
X0154659Y0093363D02*
X0162282Y0093363D01*
X0162200Y0092365D02*
X0153660Y0092365D01*
X0152662Y0091366D02*
X0162200Y0091366D01*
X0162200Y0090368D02*
X0151663Y0090368D01*
X0150665Y0089369D02*
X0162550Y0089369D01*
X0163548Y0088370D02*
X0149666Y0088370D01*
X0148668Y0087372D02*
X0164547Y0087372D01*
X0170800Y0092365D02*
X0172000Y0092365D01*
X0172000Y0093363D02*
X0170718Y0093363D01*
X0169720Y0094362D02*
X0172998Y0094362D01*
X0173996Y0095360D02*
X0168721Y0095360D01*
X0168438Y0097357D02*
X0174562Y0097357D01*
X0173563Y0098356D02*
X0169437Y0098356D01*
X0170435Y0099354D02*
X0172565Y0099354D01*
X0172200Y0100353D02*
X0170800Y0100353D01*
X0170800Y0101351D02*
X0172200Y0101351D01*
X0172200Y0102350D02*
X0170800Y0102350D01*
X0170733Y0103348D02*
X0172267Y0103348D01*
X0173266Y0104347D02*
X0169734Y0104347D01*
X0168736Y0105345D02*
X0174264Y0105345D01*
X0178736Y0105345D02*
X0225671Y0105345D01*
X0225671Y0104347D02*
X0179734Y0104347D01*
X0180733Y0103348D02*
X0225671Y0103348D01*
X0225671Y0102350D02*
X0180800Y0102350D01*
X0180800Y0101351D02*
X0225671Y0101351D01*
X0225671Y0100353D02*
X0180800Y0100353D01*
X0180435Y0099354D02*
X0225671Y0099354D01*
X0225671Y0098356D02*
X0179437Y0098356D01*
X0177000Y0095360D02*
X0176000Y0095360D01*
X0176000Y0094362D02*
X0177000Y0094362D01*
X0177000Y0093363D02*
X0176000Y0093363D01*
X0176000Y0092365D02*
X0177000Y0092365D01*
X0177000Y0091366D02*
X0225671Y0091366D01*
X0225671Y0106344D02*
X0070746Y0106344D01*
X0070850Y0106240D02*
X0070571Y0106519D01*
X0070416Y0106609D01*
X0070950Y0107143D01*
X0070950Y0113338D01*
X0070188Y0114099D01*
X0068300Y0114099D01*
X0068300Y0127200D01*
X0070355Y0127200D01*
X0071936Y0127855D01*
X0073145Y0129064D01*
X0073800Y0130645D01*
X0073800Y0132355D01*
X0073145Y0133936D01*
X0071936Y0135145D01*
X0070355Y0135800D01*
X0062645Y0135800D01*
X0061064Y0135145D01*
X0059855Y0133936D01*
X0059200Y0132355D01*
X0059200Y0130645D01*
X0059855Y0129064D01*
X0061064Y0127855D01*
X0062645Y0127200D01*
X0064700Y0127200D01*
X0064700Y0114099D01*
X0062812Y0114099D01*
X0062050Y0113338D01*
X0062050Y0112050D01*
X0059504Y0112050D01*
X0058450Y0110996D01*
X0053450Y0105996D01*
X0053450Y0096031D01*
X0052730Y0096031D01*
X0051969Y0095270D01*
X0051969Y0090230D01*
X0052730Y0089469D01*
X0057770Y0089469D01*
X0058531Y0090230D01*
X0058531Y0095270D01*
X0057770Y0096031D01*
X0057050Y0096031D01*
X0057050Y0104504D01*
X0060996Y0108450D01*
X0062050Y0108450D01*
X0062050Y0107143D01*
X0062584Y0106609D01*
X0062429Y0106519D01*
X0062150Y0106240D01*
X0061953Y0105898D01*
X0061850Y0105516D01*
X0061850Y0103260D01*
X0066000Y0103260D01*
X0066000Y0102260D01*
X0061850Y0102260D01*
X0061850Y0100003D01*
X0061953Y0099622D01*
X0062150Y0099280D01*
X0062429Y0099000D01*
X0062771Y0098803D01*
X0063153Y0098701D01*
X0066000Y0098701D01*
X0066000Y0102260D01*
X0067000Y0102260D01*
X0067000Y0103260D01*
X0071150Y0103260D01*
X0071150Y0105516D01*
X0071047Y0105898D01*
X0070850Y0106240D01*
X0071150Y0105345D02*
X0164264Y0105345D01*
X0163266Y0104347D02*
X0071150Y0104347D01*
X0071150Y0103348D02*
X0125047Y0103348D01*
X0124469Y0102350D02*
X0067000Y0102350D01*
X0067000Y0102260D02*
X0071150Y0102260D01*
X0071150Y0100003D01*
X0071047Y0099622D01*
X0070850Y0099280D01*
X0070571Y0099000D01*
X0070229Y0098803D01*
X0069847Y0098701D01*
X0067000Y0098701D01*
X0067000Y0102260D01*
X0067000Y0101351D02*
X0066000Y0101351D01*
X0066000Y0100353D02*
X0067000Y0100353D01*
X0067000Y0099354D02*
X0066000Y0099354D01*
X0066000Y0102350D02*
X0057050Y0102350D01*
X0057050Y0103348D02*
X0061850Y0103348D01*
X0061850Y0104347D02*
X0057050Y0104347D01*
X0057891Y0105345D02*
X0061850Y0105345D01*
X0062254Y0106344D02*
X0058889Y0106344D01*
X0059888Y0107342D02*
X0062050Y0107342D01*
X0062050Y0108341D02*
X0060886Y0108341D01*
X0060250Y0110250D02*
X0066490Y0110250D01*
X0066500Y0110240D01*
X0066500Y0131500D01*
X0070627Y0127312D02*
X0143435Y0127312D01*
X0144250Y0126975D02*
X0146050Y0126975D01*
X0147713Y0127664D01*
X0148986Y0128937D01*
X0149675Y0130600D01*
X0149675Y0132400D01*
X0148986Y0134063D01*
X0147713Y0135336D01*
X0146050Y0136025D01*
X0144250Y0136025D01*
X0142587Y0135336D01*
X0141314Y0134063D01*
X0140625Y0132400D01*
X0140625Y0130600D01*
X0141314Y0128937D01*
X0142587Y0127664D01*
X0144250Y0126975D01*
X0146865Y0127312D02*
X0154335Y0127312D01*
X0155150Y0126975D02*
X0153487Y0127664D01*
X0152214Y0128937D01*
X0151525Y0130600D01*
X0151525Y0132400D01*
X0152214Y0134063D01*
X0153487Y0135336D01*
X0155150Y0136025D01*
X0156950Y0136025D01*
X0158613Y0135336D01*
X0159886Y0134063D01*
X0160575Y0132400D01*
X0160575Y0130600D01*
X0159886Y0128937D01*
X0158613Y0127664D01*
X0156950Y0126975D01*
X0155150Y0126975D01*
X0157765Y0127312D02*
X0165235Y0127312D01*
X0166050Y0126975D02*
X0167850Y0126975D01*
X0169513Y0127664D01*
X0170786Y0128937D01*
X0171475Y0130600D01*
X0171475Y0132400D01*
X0170786Y0134063D01*
X0169513Y0135336D01*
X0167850Y0136025D01*
X0166050Y0136025D01*
X0164387Y0135336D01*
X0163114Y0134063D01*
X0162425Y0132400D01*
X0162425Y0130600D01*
X0163114Y0128937D01*
X0164387Y0127664D01*
X0166050Y0126975D01*
X0168665Y0127312D02*
X0176135Y0127312D01*
X0176950Y0126975D02*
X0178750Y0126975D01*
X0180413Y0127664D01*
X0181686Y0128937D01*
X0182375Y0130600D01*
X0182375Y0132400D01*
X0181686Y0134063D01*
X0180413Y0135336D01*
X0178750Y0136025D01*
X0176950Y0136025D01*
X0175287Y0135336D01*
X0174014Y0134063D01*
X0173325Y0132400D01*
X0173325Y0130600D01*
X0174014Y0128937D01*
X0175287Y0127664D01*
X0176950Y0126975D01*
X0179565Y0127312D02*
X0225671Y0127312D01*
X0225671Y0126314D02*
X0068300Y0126314D01*
X0068300Y0125315D02*
X0225671Y0125315D01*
X0225671Y0124317D02*
X0185427Y0124317D01*
X0185863Y0124136D02*
X0184200Y0124825D01*
X0182400Y0124825D01*
X0180737Y0124136D01*
X0179464Y0122863D01*
X0178775Y0121200D01*
X0178775Y0119400D01*
X0179464Y0117737D01*
X0180737Y0116464D01*
X0182400Y0115775D01*
X0184200Y0115775D01*
X0185863Y0116464D01*
X0187136Y0117737D01*
X0187825Y0119400D01*
X0187825Y0121200D01*
X0187136Y0122863D01*
X0185863Y0124136D01*
X0186681Y0123318D02*
X0225671Y0123318D01*
X0225671Y0122320D02*
X0187361Y0122320D01*
X0187775Y0121321D02*
X0225671Y0121321D01*
X0225671Y0120323D02*
X0187825Y0120323D01*
X0187794Y0119324D02*
X0225671Y0119324D01*
X0225671Y0118326D02*
X0187380Y0118326D01*
X0186727Y0117327D02*
X0225671Y0117327D01*
X0225671Y0116329D02*
X0185537Y0116329D01*
X0181063Y0116329D02*
X0174637Y0116329D01*
X0174963Y0116464D02*
X0176236Y0117737D01*
X0176925Y0119400D01*
X0176925Y0121200D01*
X0176236Y0122863D01*
X0174963Y0124136D01*
X0173300Y0124825D01*
X0171500Y0124825D01*
X0169837Y0124136D01*
X0168564Y0122863D01*
X0167875Y0121200D01*
X0167875Y0119400D01*
X0168564Y0117737D01*
X0169837Y0116464D01*
X0171500Y0115775D01*
X0173300Y0115775D01*
X0174963Y0116464D01*
X0175827Y0117327D02*
X0179873Y0117327D01*
X0179220Y0118326D02*
X0176480Y0118326D01*
X0176894Y0119324D02*
X0178806Y0119324D01*
X0178775Y0120323D02*
X0176925Y0120323D01*
X0176875Y0121321D02*
X0178825Y0121321D01*
X0179239Y0122320D02*
X0176461Y0122320D01*
X0175781Y0123318D02*
X0179919Y0123318D01*
X0181173Y0124317D02*
X0174527Y0124317D01*
X0174640Y0128311D02*
X0170160Y0128311D01*
X0170940Y0129309D02*
X0173860Y0129309D01*
X0173446Y0130308D02*
X0171354Y0130308D01*
X0171475Y0131306D02*
X0173325Y0131306D01*
X0173325Y0132305D02*
X0171475Y0132305D01*
X0171101Y0133303D02*
X0173699Y0133303D01*
X0174253Y0134302D02*
X0170547Y0134302D01*
X0169549Y0135301D02*
X0175251Y0135301D01*
X0180449Y0135301D02*
X0225671Y0135301D01*
X0225671Y0136299D02*
X0038466Y0136299D01*
X0039464Y0137298D02*
X0062409Y0137298D01*
X0062645Y0137200D02*
X0061064Y0137855D01*
X0060719Y0138200D01*
X0040367Y0138200D01*
X0024800Y0122633D01*
X0024800Y0091600D01*
X0026434Y0091600D01*
X0028346Y0090808D01*
X0029808Y0089346D01*
X0030600Y0087434D01*
X0030600Y0085366D01*
X0029808Y0083454D01*
X0028346Y0081992D01*
X0026434Y0081200D01*
X0016566Y0081200D01*
X0014654Y0081992D01*
X0013192Y0083454D01*
X0012400Y0085366D01*
X0012400Y0087434D01*
X0013192Y0089346D01*
X0014654Y0090808D01*
X0016566Y0091600D01*
X0018200Y0091600D01*
X0018200Y0124656D01*
X0018702Y0125869D01*
X0036202Y0143369D01*
X0037131Y0144298D01*
X0038344Y0144800D01*
X0060719Y0144800D01*
X0061064Y0145145D01*
X0062645Y0145800D01*
X0070355Y0145800D01*
X0071936Y0145145D01*
X0073145Y0143936D01*
X0073800Y0142355D01*
X0073800Y0140645D01*
X0073145Y0139064D01*
X0071936Y0137855D01*
X0070355Y0137200D01*
X0062645Y0137200D01*
X0061439Y0135301D02*
X0037467Y0135301D01*
X0036469Y0134302D02*
X0060221Y0134302D01*
X0059593Y0133303D02*
X0035470Y0133303D01*
X0034472Y0132305D02*
X0059200Y0132305D01*
X0059200Y0131306D02*
X0033473Y0131306D01*
X0032475Y0130308D02*
X0059339Y0130308D01*
X0059753Y0129309D02*
X0031476Y0129309D01*
X0030478Y0128311D02*
X0060608Y0128311D01*
X0062373Y0127312D02*
X0029479Y0127312D01*
X0028481Y0126314D02*
X0064700Y0126314D01*
X0064700Y0125315D02*
X0027482Y0125315D01*
X0026484Y0124317D02*
X0064700Y0124317D01*
X0064700Y0123318D02*
X0025485Y0123318D01*
X0024800Y0122320D02*
X0064700Y0122320D01*
X0064700Y0121321D02*
X0024800Y0121321D01*
X0024800Y0120323D02*
X0064700Y0120323D01*
X0064700Y0119324D02*
X0024800Y0119324D01*
X0024800Y0118326D02*
X0064700Y0118326D01*
X0064700Y0117327D02*
X0024800Y0117327D01*
X0024800Y0116329D02*
X0064700Y0116329D01*
X0064700Y0115330D02*
X0024800Y0115330D01*
X0024800Y0114332D02*
X0064700Y0114332D01*
X0062050Y0113333D02*
X0024800Y0113333D01*
X0024800Y0112335D02*
X0062050Y0112335D01*
X0060250Y0110250D02*
X0055250Y0105250D01*
X0055250Y0092750D01*
X0051969Y0092365D02*
X0024800Y0092365D01*
X0024800Y0093363D02*
X0051969Y0093363D01*
X0051969Y0094362D02*
X0024800Y0094362D01*
X0024800Y0095360D02*
X0052059Y0095360D01*
X0053450Y0096359D02*
X0024800Y0096359D01*
X0024800Y0097357D02*
X0053450Y0097357D01*
X0053450Y0098356D02*
X0024800Y0098356D01*
X0024800Y0099354D02*
X0053450Y0099354D01*
X0053450Y0100353D02*
X0024800Y0100353D01*
X0024800Y0101351D02*
X0053450Y0101351D01*
X0053450Y0102350D02*
X0024800Y0102350D01*
X0024800Y0103348D02*
X0053450Y0103348D01*
X0053450Y0104347D02*
X0024800Y0104347D01*
X0024800Y0105345D02*
X0053450Y0105345D01*
X0053798Y0106344D02*
X0024800Y0106344D01*
X0024800Y0107342D02*
X0054797Y0107342D01*
X0055795Y0108341D02*
X0024800Y0108341D01*
X0024800Y0109339D02*
X0056794Y0109339D01*
X0057792Y0110338D02*
X0024800Y0110338D01*
X0024800Y0111336D02*
X0058791Y0111336D01*
X0068300Y0114332D02*
X0225671Y0114332D01*
X0225671Y0115330D02*
X0068300Y0115330D01*
X0068300Y0116329D02*
X0137127Y0116329D01*
X0137224Y0116259D02*
X0137886Y0115921D01*
X0138594Y0115691D01*
X0139200Y0115595D01*
X0139200Y0119800D01*
X0140200Y0119800D01*
X0140200Y0120800D01*
X0144405Y0120800D01*
X0144309Y0121406D01*
X0144079Y0122114D01*
X0143741Y0122776D01*
X0143304Y0123378D01*
X0142778Y0123904D01*
X0142176Y0124341D01*
X0141514Y0124679D01*
X0140806Y0124909D01*
X0140200Y0125005D01*
X0140200Y0120800D01*
X0139200Y0120800D01*
X0139200Y0125005D01*
X0138594Y0124909D01*
X0137886Y0124679D01*
X0137224Y0124341D01*
X0136622Y0123904D01*
X0136096Y0123378D01*
X0135659Y0122776D01*
X0135321Y0122114D01*
X0135091Y0121406D01*
X0134995Y0120800D01*
X0139200Y0120800D01*
X0139200Y0119800D01*
X0134995Y0119800D01*
X0135091Y0119194D01*
X0135321Y0118486D01*
X0135659Y0117824D01*
X0136096Y0117222D01*
X0136622Y0116696D01*
X0137224Y0116259D01*
X0136019Y0117327D02*
X0068300Y0117327D01*
X0068300Y0118326D02*
X0135403Y0118326D01*
X0135071Y0119324D02*
X0068300Y0119324D01*
X0068300Y0120323D02*
X0139200Y0120323D01*
X0139200Y0121321D02*
X0140200Y0121321D01*
X0140200Y0120323D02*
X0146075Y0120323D01*
X0146075Y0121200D02*
X0146075Y0119400D01*
X0146764Y0117737D01*
X0148037Y0116464D01*
X0149700Y0115775D01*
X0151500Y0115775D01*
X0153163Y0116464D01*
X0154436Y0117737D01*
X0155125Y0119400D01*
X0155125Y0121200D01*
X0154436Y0122863D01*
X0153163Y0124136D01*
X0151500Y0124825D01*
X0149700Y0124825D01*
X0148037Y0124136D01*
X0146764Y0122863D01*
X0146075Y0121200D01*
X0146125Y0121321D02*
X0144322Y0121321D01*
X0143974Y0122320D02*
X0146539Y0122320D01*
X0147219Y0123318D02*
X0143347Y0123318D01*
X0142210Y0124317D02*
X0148473Y0124317D01*
X0148360Y0128311D02*
X0152840Y0128311D01*
X0152060Y0129309D02*
X0149140Y0129309D01*
X0149554Y0130308D02*
X0151646Y0130308D01*
X0151525Y0131306D02*
X0149675Y0131306D01*
X0149675Y0132305D02*
X0151525Y0132305D01*
X0151899Y0133303D02*
X0149301Y0133303D01*
X0148747Y0134302D02*
X0152453Y0134302D01*
X0153451Y0135301D02*
X0147749Y0135301D01*
X0142551Y0135301D02*
X0071561Y0135301D01*
X0072779Y0134302D02*
X0141553Y0134302D01*
X0140999Y0133303D02*
X0073407Y0133303D01*
X0073800Y0132305D02*
X0140625Y0132305D01*
X0140625Y0131306D02*
X0073800Y0131306D01*
X0073661Y0130308D02*
X0140746Y0130308D01*
X0141160Y0129309D02*
X0073247Y0129309D01*
X0072392Y0128311D02*
X0141940Y0128311D01*
X0140200Y0124317D02*
X0139200Y0124317D01*
X0139200Y0123318D02*
X0140200Y0123318D01*
X0140200Y0122320D02*
X0139200Y0122320D01*
X0137190Y0124317D02*
X0068300Y0124317D01*
X0068300Y0123318D02*
X0136053Y0123318D01*
X0135426Y0122320D02*
X0068300Y0122320D01*
X0068300Y0121321D02*
X0135078Y0121321D01*
X0139200Y0119324D02*
X0140200Y0119324D01*
X0140200Y0119800D02*
X0140200Y0115595D01*
X0140806Y0115691D01*
X0141514Y0115921D01*
X0142176Y0116259D01*
X0142778Y0116696D01*
X0143304Y0117222D01*
X0143741Y0117824D01*
X0144079Y0118486D01*
X0144309Y0119194D01*
X0144405Y0119800D01*
X0140200Y0119800D01*
X0140200Y0118326D02*
X0139200Y0118326D01*
X0139200Y0117327D02*
X0140200Y0117327D01*
X0140200Y0116329D02*
X0139200Y0116329D01*
X0142273Y0116329D02*
X0148363Y0116329D01*
X0147173Y0117327D02*
X0143381Y0117327D01*
X0143997Y0118326D02*
X0146520Y0118326D01*
X0146106Y0119324D02*
X0144329Y0119324D01*
X0152837Y0116329D02*
X0159263Y0116329D01*
X0158937Y0116464D02*
X0160600Y0115775D01*
X0162400Y0115775D01*
X0164063Y0116464D01*
X0165336Y0117737D01*
X0166025Y0119400D01*
X0166025Y0121200D01*
X0165336Y0122863D01*
X0164063Y0124136D01*
X0162400Y0124825D01*
X0160600Y0124825D01*
X0158937Y0124136D01*
X0157664Y0122863D01*
X0156975Y0121200D01*
X0156975Y0119400D01*
X0157664Y0117737D01*
X0158937Y0116464D01*
X0158073Y0117327D02*
X0154027Y0117327D01*
X0154680Y0118326D02*
X0157420Y0118326D01*
X0157006Y0119324D02*
X0155094Y0119324D01*
X0155125Y0120323D02*
X0156975Y0120323D01*
X0157025Y0121321D02*
X0155075Y0121321D01*
X0154661Y0122320D02*
X0157439Y0122320D01*
X0158119Y0123318D02*
X0153981Y0123318D01*
X0152727Y0124317D02*
X0159373Y0124317D01*
X0159260Y0128311D02*
X0163740Y0128311D01*
X0162960Y0129309D02*
X0160040Y0129309D01*
X0160454Y0130308D02*
X0162546Y0130308D01*
X0162425Y0131306D02*
X0160575Y0131306D01*
X0160575Y0132305D02*
X0162425Y0132305D01*
X0162799Y0133303D02*
X0160201Y0133303D01*
X0159647Y0134302D02*
X0163353Y0134302D01*
X0164351Y0135301D02*
X0158649Y0135301D01*
X0163627Y0124317D02*
X0170273Y0124317D01*
X0169019Y0123318D02*
X0164881Y0123318D01*
X0165561Y0122320D02*
X0168339Y0122320D01*
X0167925Y0121321D02*
X0165975Y0121321D01*
X0166025Y0120323D02*
X0167875Y0120323D01*
X0167906Y0119324D02*
X0165994Y0119324D01*
X0165580Y0118326D02*
X0168320Y0118326D01*
X0168973Y0117327D02*
X0164927Y0117327D01*
X0163737Y0116329D02*
X0170163Y0116329D01*
X0181060Y0128311D02*
X0225671Y0128311D01*
X0225671Y0129309D02*
X0181840Y0129309D01*
X0182254Y0130308D02*
X0225671Y0130308D01*
X0225671Y0131306D02*
X0182375Y0131306D01*
X0182375Y0132305D02*
X0225671Y0132305D01*
X0225671Y0133303D02*
X0182001Y0133303D01*
X0181447Y0134302D02*
X0225671Y0134302D01*
X0225671Y0137298D02*
X0070591Y0137298D01*
X0072377Y0138296D02*
X0225671Y0138296D01*
X0225671Y0139295D02*
X0073241Y0139295D01*
X0073654Y0140293D02*
X0225671Y0140293D01*
X0225671Y0141292D02*
X0073800Y0141292D01*
X0073800Y0142290D02*
X0225671Y0142290D01*
X0225671Y0143289D02*
X0073413Y0143289D01*
X0072794Y0144287D02*
X0225671Y0144287D01*
X0225671Y0145286D02*
X0071597Y0145286D01*
X0071083Y0147283D02*
X0225671Y0147283D01*
X0225671Y0148281D02*
X0072645Y0148281D01*
X0072432Y0148068D02*
X0072932Y0148568D01*
X0073349Y0149141D01*
X0073670Y0149773D01*
X0073889Y0150446D01*
X0073977Y0151000D01*
X0067000Y0151000D01*
X0067000Y0152000D01*
X0066000Y0152000D01*
X0066000Y0156000D01*
X0063146Y0156000D01*
X0062446Y0155889D01*
X0061773Y0155670D01*
X0061141Y0155349D01*
X0060568Y0154932D01*
X0060068Y0154432D01*
X0059651Y0153859D01*
X0059330Y0153227D01*
X0059111Y0152554D01*
X0059023Y0152000D01*
X0066000Y0152000D01*
X0066000Y0151000D01*
X0067000Y0151000D01*
X0067000Y0147000D01*
X0069854Y0147000D01*
X0070554Y0147111D01*
X0071227Y0147330D01*
X0071859Y0147651D01*
X0072432Y0148068D01*
X0073419Y0149280D02*
X0108136Y0149280D01*
X0108247Y0149216D02*
X0110918Y0148500D01*
X0113682Y0148500D01*
X0116353Y0149216D01*
X0118747Y0150598D01*
X0120702Y0152553D01*
X0122084Y0154947D01*
X0122800Y0157618D01*
X0122800Y0160382D01*
X0122084Y0163053D01*
X0120702Y0165447D01*
X0118747Y0167402D01*
X0116353Y0168784D01*
X0113682Y0169500D01*
X0110918Y0169500D01*
X0108247Y0168784D01*
X0105853Y0167402D01*
X0103898Y0165447D01*
X0102516Y0163053D01*
X0101800Y0160382D01*
X0101800Y0157618D01*
X0102516Y0154947D01*
X0103898Y0152553D01*
X0105853Y0150598D01*
X0108247Y0149216D01*
X0106407Y0150278D02*
X0073835Y0150278D01*
X0073977Y0152000D02*
X0073889Y0152554D01*
X0073670Y0153227D01*
X0073349Y0153859D01*
X0072932Y0154432D01*
X0072432Y0154932D01*
X0071859Y0155349D01*
X0071227Y0155670D01*
X0070554Y0155889D01*
X0069854Y0156000D01*
X0067000Y0156000D01*
X0067000Y0152000D01*
X0073977Y0152000D01*
X0073933Y0152275D02*
X0104176Y0152275D01*
X0103482Y0153274D02*
X0073647Y0153274D01*
X0073048Y0154272D02*
X0102905Y0154272D01*
X0102429Y0155271D02*
X0071966Y0155271D01*
X0067000Y0155271D02*
X0066000Y0155271D01*
X0066000Y0154272D02*
X0067000Y0154272D01*
X0067000Y0153274D02*
X0066000Y0153274D01*
X0066000Y0152275D02*
X0067000Y0152275D01*
X0067000Y0151277D02*
X0105174Y0151277D01*
X0102161Y0156269D02*
X0006000Y0156269D01*
X0006000Y0155271D02*
X0061034Y0155271D01*
X0059952Y0154272D02*
X0006000Y0154272D01*
X0006000Y0153274D02*
X0059353Y0153274D01*
X0059067Y0152275D02*
X0006000Y0152275D01*
X0006000Y0151277D02*
X0066000Y0151277D01*
X0066000Y0151000D02*
X0059023Y0151000D01*
X0059111Y0150446D01*
X0059330Y0149773D01*
X0059651Y0149141D01*
X0060068Y0148568D01*
X0060568Y0148068D01*
X0061141Y0147651D01*
X0061773Y0147330D01*
X0062446Y0147111D01*
X0063146Y0147000D01*
X0066000Y0147000D01*
X0066000Y0151000D01*
X0066000Y0150278D02*
X0067000Y0150278D01*
X0067000Y0149280D02*
X0066000Y0149280D01*
X0066000Y0148281D02*
X0067000Y0148281D01*
X0067000Y0147283D02*
X0066000Y0147283D01*
X0061917Y0147283D02*
X0006000Y0147283D01*
X0006000Y0148281D02*
X0060355Y0148281D01*
X0059581Y0149280D02*
X0006000Y0149280D01*
X0006000Y0150278D02*
X0059165Y0150278D01*
X0061403Y0145286D02*
X0006000Y0145286D01*
X0006000Y0146284D02*
X0225671Y0146284D01*
X0225671Y0149280D02*
X0214864Y0149280D01*
X0214753Y0149216D02*
X0217147Y0150598D01*
X0219102Y0152553D01*
X0220484Y0154947D01*
X0221200Y0157618D01*
X0221200Y0160382D01*
X0220484Y0163053D01*
X0219102Y0165447D01*
X0217147Y0167402D01*
X0214753Y0168784D01*
X0212082Y0169500D01*
X0209318Y0169500D01*
X0206647Y0168784D01*
X0204253Y0167402D01*
X0202298Y0165447D01*
X0200916Y0163053D01*
X0200200Y0160382D01*
X0200200Y0157618D01*
X0200916Y0154947D01*
X0202298Y0152553D01*
X0204253Y0150598D01*
X0206647Y0149216D01*
X0209318Y0148500D01*
X0212082Y0148500D01*
X0214753Y0149216D01*
X0216593Y0150278D02*
X0225671Y0150278D01*
X0225671Y0151277D02*
X0217826Y0151277D01*
X0218824Y0152275D02*
X0225671Y0152275D01*
X0225671Y0153274D02*
X0219518Y0153274D01*
X0220095Y0154272D02*
X0225671Y0154272D01*
X0225671Y0155271D02*
X0220571Y0155271D01*
X0220839Y0156269D02*
X0225671Y0156269D01*
X0225671Y0157268D02*
X0221106Y0157268D01*
X0221200Y0158266D02*
X0225671Y0158266D01*
X0225671Y0159265D02*
X0221200Y0159265D01*
X0221200Y0160263D02*
X0225671Y0160263D01*
X0225671Y0161262D02*
X0220964Y0161262D01*
X0220697Y0162260D02*
X0225671Y0162260D01*
X0225671Y0163259D02*
X0220366Y0163259D01*
X0219789Y0164257D02*
X0225671Y0164257D01*
X0225671Y0165256D02*
X0219213Y0165256D01*
X0218295Y0166254D02*
X0225671Y0166254D01*
X0225671Y0167253D02*
X0217296Y0167253D01*
X0215676Y0168251D02*
X0225671Y0168251D01*
X0225671Y0169250D02*
X0213016Y0169250D01*
X0208384Y0169250D02*
X0114616Y0169250D01*
X0117276Y0168251D02*
X0205724Y0168251D01*
X0204104Y0167253D02*
X0118896Y0167253D01*
X0119895Y0166254D02*
X0203105Y0166254D01*
X0202187Y0165256D02*
X0120813Y0165256D01*
X0121389Y0164257D02*
X0201611Y0164257D01*
X0201034Y0163259D02*
X0121966Y0163259D01*
X0122297Y0162260D02*
X0200703Y0162260D01*
X0200436Y0161262D02*
X0122564Y0161262D01*
X0122800Y0160263D02*
X0200200Y0160263D01*
X0200200Y0159265D02*
X0122800Y0159265D01*
X0122800Y0158266D02*
X0200200Y0158266D01*
X0200294Y0157268D02*
X0122706Y0157268D01*
X0122439Y0156269D02*
X0200561Y0156269D01*
X0200829Y0155271D02*
X0122171Y0155271D01*
X0121695Y0154272D02*
X0201305Y0154272D01*
X0201882Y0153274D02*
X0121118Y0153274D01*
X0120424Y0152275D02*
X0202576Y0152275D01*
X0203574Y0151277D02*
X0119426Y0151277D01*
X0118193Y0150278D02*
X0204807Y0150278D01*
X0206536Y0149280D02*
X0116464Y0149280D01*
X0101894Y0157268D02*
X0006000Y0157268D01*
X0006000Y0158266D02*
X0101800Y0158266D01*
X0101800Y0159265D02*
X0006000Y0159265D01*
X0006000Y0160263D02*
X0101800Y0160263D01*
X0102036Y0161262D02*
X0006000Y0161262D01*
X0006000Y0162260D02*
X0102303Y0162260D01*
X0102634Y0163259D02*
X0006000Y0163259D01*
X0006000Y0164257D02*
X0103211Y0164257D01*
X0103787Y0165256D02*
X0006000Y0165256D01*
X0006000Y0166254D02*
X0104705Y0166254D01*
X0105704Y0167253D02*
X0006000Y0167253D01*
X0006000Y0168251D02*
X0107324Y0168251D01*
X0109984Y0169250D02*
X0006000Y0169250D01*
X0006000Y0170248D02*
X0225671Y0170248D01*
X0225671Y0171247D02*
X0006000Y0171247D01*
X0006000Y0172245D02*
X0225671Y0172245D01*
X0225671Y0173244D02*
X0006000Y0173244D01*
X0006000Y0174242D02*
X0225671Y0174242D01*
X0225671Y0175241D02*
X0006000Y0175241D01*
X0006000Y0176239D02*
X0225671Y0176239D01*
X0225671Y0177238D02*
X0006000Y0177238D01*
X0006000Y0178237D02*
X0225671Y0178237D01*
X0225671Y0179235D02*
X0006000Y0179235D01*
X0006000Y0180234D02*
X0225671Y0180234D01*
X0225671Y0181232D02*
X0006000Y0181232D01*
X0006000Y0144287D02*
X0037120Y0144287D01*
X0036122Y0143289D02*
X0006000Y0143289D01*
X0006000Y0142290D02*
X0035123Y0142290D01*
X0034125Y0141292D02*
X0006000Y0141292D01*
X0006000Y0140293D02*
X0033126Y0140293D01*
X0032128Y0139295D02*
X0006000Y0139295D01*
X0006000Y0138296D02*
X0031129Y0138296D01*
X0030131Y0137298D02*
X0006000Y0137298D01*
X0006000Y0136299D02*
X0029132Y0136299D01*
X0028134Y0135301D02*
X0006000Y0135301D01*
X0006000Y0134302D02*
X0027135Y0134302D01*
X0026137Y0133303D02*
X0006000Y0133303D01*
X0006000Y0132305D02*
X0025138Y0132305D01*
X0024140Y0131306D02*
X0006000Y0131306D01*
X0006000Y0130308D02*
X0023141Y0130308D01*
X0022143Y0129309D02*
X0006000Y0129309D01*
X0006000Y0128311D02*
X0021144Y0128311D01*
X0020146Y0127312D02*
X0006000Y0127312D01*
X0006000Y0126314D02*
X0019147Y0126314D01*
X0018473Y0125315D02*
X0006000Y0125315D01*
X0006000Y0124317D02*
X0018200Y0124317D01*
X0018200Y0123318D02*
X0006000Y0123318D01*
X0006000Y0122320D02*
X0018200Y0122320D01*
X0018200Y0121321D02*
X0006000Y0121321D01*
X0006000Y0120323D02*
X0018200Y0120323D01*
X0018200Y0119324D02*
X0006000Y0119324D01*
X0006000Y0118326D02*
X0018200Y0118326D01*
X0018200Y0117327D02*
X0006000Y0117327D01*
X0006000Y0116329D02*
X0018200Y0116329D01*
X0018200Y0115330D02*
X0006000Y0115330D01*
X0006000Y0114332D02*
X0018200Y0114332D01*
X0018200Y0113333D02*
X0006000Y0113333D01*
X0006000Y0112335D02*
X0018200Y0112335D01*
X0018200Y0111336D02*
X0006000Y0111336D01*
X0006000Y0110338D02*
X0018200Y0110338D01*
X0018200Y0109339D02*
X0006000Y0109339D01*
X0006000Y0108341D02*
X0018200Y0108341D01*
X0018200Y0107342D02*
X0006000Y0107342D01*
X0006000Y0106344D02*
X0018200Y0106344D01*
X0018200Y0105345D02*
X0006000Y0105345D01*
X0006000Y0104347D02*
X0018200Y0104347D01*
X0018200Y0103348D02*
X0006000Y0103348D01*
X0006000Y0102350D02*
X0018200Y0102350D01*
X0018200Y0101351D02*
X0006000Y0101351D01*
X0006000Y0100353D02*
X0018200Y0100353D01*
X0018200Y0099354D02*
X0006000Y0099354D01*
X0006000Y0098356D02*
X0018200Y0098356D01*
X0018200Y0097357D02*
X0006000Y0097357D01*
X0006000Y0096359D02*
X0018200Y0096359D01*
X0018200Y0095360D02*
X0006000Y0095360D01*
X0006000Y0094362D02*
X0018200Y0094362D01*
X0018200Y0093363D02*
X0006000Y0093363D01*
X0006000Y0092365D02*
X0018200Y0092365D01*
X0016001Y0091366D02*
X0006000Y0091366D01*
X0006000Y0090368D02*
X0014214Y0090368D01*
X0013215Y0089369D02*
X0006000Y0089369D01*
X0006000Y0088370D02*
X0012788Y0088370D01*
X0012400Y0087372D02*
X0006000Y0087372D01*
X0006000Y0086373D02*
X0012400Y0086373D01*
X0012400Y0085375D02*
X0006000Y0085375D01*
X0006000Y0084376D02*
X0012810Y0084376D01*
X0013268Y0083378D02*
X0006000Y0083378D01*
X0006000Y0082379D02*
X0014267Y0082379D01*
X0016129Y0081381D02*
X0006000Y0081381D01*
X0006000Y0080382D02*
X0078695Y0080382D01*
X0078504Y0079384D02*
X0006000Y0079384D01*
X0006000Y0078385D02*
X0078504Y0078385D01*
X0078504Y0077387D02*
X0006000Y0077387D01*
X0006000Y0076388D02*
X0082063Y0076388D01*
X0082063Y0075390D02*
X0083063Y0075390D01*
X0083063Y0074391D02*
X0082063Y0074391D01*
X0082063Y0073393D02*
X0083063Y0073393D01*
X0083063Y0072394D02*
X0082063Y0072394D01*
X0078504Y0073393D02*
X0006000Y0073393D01*
X0006000Y0074391D02*
X0078504Y0074391D01*
X0078504Y0075390D02*
X0006000Y0075390D01*
X0025300Y0058415D02*
X0083370Y0058415D01*
X0082371Y0057417D02*
X0025300Y0057417D01*
X0025300Y0056418D02*
X0081373Y0056418D01*
X0080374Y0055420D02*
X0025300Y0055420D01*
X0025300Y0054421D02*
X0079376Y0054421D01*
X0078377Y0053423D02*
X0025300Y0053423D01*
X0025300Y0052424D02*
X0034979Y0052424D01*
X0033980Y0051426D02*
X0025300Y0051426D01*
X0025300Y0050427D02*
X0032981Y0050427D01*
X0031983Y0049429D02*
X0025300Y0049429D01*
X0025300Y0048430D02*
X0030984Y0048430D01*
X0029986Y0047432D02*
X0025300Y0047432D01*
X0025300Y0046433D02*
X0028987Y0046433D01*
X0027989Y0045434D02*
X0025300Y0045434D01*
X0025300Y0044436D02*
X0026990Y0044436D01*
X0025992Y0043437D02*
X0025300Y0043437D01*
X0028400Y0040754D02*
X0037346Y0049700D01*
X0079746Y0049700D01*
X0080800Y0050754D01*
X0086500Y0056454D01*
X0087152Y0055802D01*
X0088450Y0054504D01*
X0089504Y0053450D01*
X0095904Y0053450D01*
X0088657Y0046202D01*
X0088657Y0042957D01*
X0086769Y0042957D01*
X0086618Y0042807D01*
X0086468Y0042957D01*
X0084210Y0042957D01*
X0084059Y0042807D01*
X0083909Y0042957D01*
X0081650Y0042957D01*
X0081500Y0042807D01*
X0081349Y0042957D01*
X0079091Y0042957D01*
X0078941Y0042807D01*
X0078790Y0042957D01*
X0076532Y0042957D01*
X0076382Y0042807D01*
X0076231Y0042957D01*
X0073973Y0042957D01*
X0073823Y0042807D01*
X0073672Y0042957D01*
X0071414Y0042957D01*
X0070653Y0042196D01*
X0070653Y0037182D01*
X0071414Y0036420D01*
X0073302Y0036420D01*
X0073302Y0032098D01*
X0070754Y0029550D01*
X0059746Y0029550D01*
X0058531Y0030764D01*
X0058531Y0034020D01*
X0057770Y0034781D01*
X0052730Y0034781D01*
X0051969Y0034020D01*
X0051969Y0028980D01*
X0052730Y0028219D01*
X0055986Y0028219D01*
X0058254Y0025950D01*
X0072246Y0025950D01*
X0073300Y0027004D01*
X0075861Y0029566D01*
X0075861Y0028343D01*
X0079469Y0024736D01*
X0079469Y0021480D01*
X0080230Y0020719D01*
X0085270Y0020719D01*
X0086031Y0021480D01*
X0086031Y0026520D01*
X0085270Y0027281D01*
X0082014Y0027281D01*
X0081077Y0028219D01*
X0085270Y0028219D01*
X0086031Y0028980D01*
X0086031Y0034020D01*
X0085270Y0034781D01*
X0082020Y0034781D01*
X0082020Y0036420D01*
X0083909Y0036420D01*
X0084059Y0036571D01*
X0084210Y0036420D01*
X0086098Y0036420D01*
X0086098Y0035607D01*
X0107200Y0014504D01*
X0108254Y0013450D01*
X0124700Y0013450D01*
X0124700Y0011395D01*
X0125355Y0009814D01*
X0126564Y0008605D01*
X0127300Y0008300D01*
X0058496Y0008300D01*
X0030600Y0036196D01*
X0030600Y0037434D01*
X0029808Y0039346D01*
X0028400Y0040754D01*
X0028712Y0040442D02*
X0070653Y0040442D01*
X0070653Y0041440D02*
X0029086Y0041440D01*
X0030085Y0042439D02*
X0070896Y0042439D01*
X0070653Y0039443D02*
X0029710Y0039443D01*
X0030181Y0038445D02*
X0070653Y0038445D01*
X0070653Y0037446D02*
X0030595Y0037446D01*
X0030600Y0036448D02*
X0071387Y0036448D01*
X0073302Y0035449D02*
X0031346Y0035449D01*
X0032345Y0034451D02*
X0052400Y0034451D01*
X0051969Y0033452D02*
X0033343Y0033452D01*
X0034342Y0032454D02*
X0051969Y0032454D01*
X0051969Y0031455D02*
X0035340Y0031455D01*
X0036339Y0030457D02*
X0051969Y0030457D01*
X0051969Y0029458D02*
X0037337Y0029458D01*
X0038336Y0028460D02*
X0052490Y0028460D01*
X0055250Y0031500D02*
X0059000Y0027750D01*
X0071500Y0027750D01*
X0075102Y0031352D01*
X0075102Y0039689D01*
X0077661Y0039689D02*
X0077661Y0029089D01*
X0082750Y0024000D01*
X0079469Y0024466D02*
X0042330Y0024466D01*
X0041331Y0025464D02*
X0078740Y0025464D01*
X0077742Y0026463D02*
X0072758Y0026463D01*
X0073757Y0027461D02*
X0076743Y0027461D01*
X0075861Y0028460D02*
X0074755Y0028460D01*
X0075754Y0029458D02*
X0075861Y0029458D01*
X0072660Y0031455D02*
X0058531Y0031455D01*
X0058531Y0032454D02*
X0073302Y0032454D01*
X0073302Y0033452D02*
X0058531Y0033452D01*
X0058100Y0034451D02*
X0073302Y0034451D01*
X0071661Y0030457D02*
X0058839Y0030457D01*
X0056743Y0027461D02*
X0039334Y0027461D01*
X0040333Y0026463D02*
X0057742Y0026463D01*
X0049319Y0017476D02*
X0104228Y0017476D01*
X0103230Y0018475D02*
X0048321Y0018475D01*
X0047322Y0019473D02*
X0102231Y0019473D01*
X0101233Y0020472D02*
X0046324Y0020472D01*
X0045325Y0021470D02*
X0079479Y0021470D01*
X0079469Y0022469D02*
X0044327Y0022469D01*
X0043328Y0023467D02*
X0079469Y0023467D01*
X0081834Y0027461D02*
X0094243Y0027461D01*
X0095242Y0026463D02*
X0086031Y0026463D01*
X0086031Y0025464D02*
X0096240Y0025464D01*
X0097239Y0024466D02*
X0086031Y0024466D01*
X0086031Y0023467D02*
X0098237Y0023467D01*
X0099236Y0022469D02*
X0086031Y0022469D01*
X0086021Y0021470D02*
X0100234Y0021470D01*
X0104327Y0022469D02*
X0127949Y0022469D01*
X0126139Y0021470D02*
X0105325Y0021470D01*
X0106324Y0020472D02*
X0125266Y0020472D01*
X0124852Y0019473D02*
X0107322Y0019473D01*
X0108321Y0018475D02*
X0124700Y0018475D01*
X0124700Y0017476D02*
X0109319Y0017476D01*
X0107224Y0014481D02*
X0052315Y0014481D01*
X0051316Y0015479D02*
X0106225Y0015479D01*
X0105227Y0016478D02*
X0050318Y0016478D01*
X0048222Y0013482D02*
X0029809Y0013482D01*
X0030018Y0013770D02*
X0030404Y0014527D01*
X0030667Y0015335D01*
X0030788Y0016100D01*
X0022000Y0016100D01*
X0022000Y0017100D01*
X0021000Y0017100D01*
X0021000Y0022000D01*
X0017175Y0022000D01*
X0016335Y0021867D01*
X0015527Y0021604D01*
X0014770Y0021218D01*
X0014082Y0020719D01*
X0013481Y0020118D01*
X0012982Y0019430D01*
X0012596Y0018673D01*
X0012333Y0017865D01*
X0012212Y0017100D01*
X0021000Y0017100D01*
X0021000Y0016100D01*
X0022000Y0016100D01*
X0022000Y0011200D01*
X0025825Y0011200D01*
X0026665Y0011333D01*
X0027473Y0011596D01*
X0028230Y0011982D01*
X0028918Y0012481D01*
X0029519Y0013082D01*
X0030018Y0013770D01*
X0030381Y0014481D02*
X0047224Y0014481D01*
X0046225Y0015479D02*
X0030690Y0015479D01*
X0030788Y0017100D02*
X0030667Y0017865D01*
X0030404Y0018673D01*
X0030018Y0019430D01*
X0029519Y0020118D01*
X0028918Y0020719D01*
X0028230Y0021218D01*
X0027473Y0021604D01*
X0026665Y0021867D01*
X0025825Y0022000D01*
X0022000Y0022000D01*
X0022000Y0017100D01*
X0030788Y0017100D01*
X0030729Y0017476D02*
X0044228Y0017476D01*
X0043230Y0018475D02*
X0030469Y0018475D01*
X0029987Y0019473D02*
X0042231Y0019473D01*
X0041233Y0020472D02*
X0029165Y0020472D01*
X0027736Y0021470D02*
X0040234Y0021470D01*
X0039236Y0022469D02*
X0006000Y0022469D01*
X0006000Y0023467D02*
X0038237Y0023467D01*
X0037239Y0024466D02*
X0006000Y0024466D01*
X0006000Y0025464D02*
X0036240Y0025464D01*
X0035242Y0026463D02*
X0006000Y0026463D01*
X0006000Y0027461D02*
X0034243Y0027461D01*
X0033245Y0028460D02*
X0006000Y0028460D01*
X0006000Y0029458D02*
X0032246Y0029458D01*
X0031248Y0030457D02*
X0006000Y0030457D01*
X0006000Y0021470D02*
X0015264Y0021470D01*
X0013835Y0020472D02*
X0006000Y0020472D01*
X0006000Y0019473D02*
X0013013Y0019473D01*
X0012531Y0018475D02*
X0006000Y0018475D01*
X0006000Y0017476D02*
X0012271Y0017476D01*
X0012212Y0016100D02*
X0012333Y0015335D01*
X0012596Y0014527D01*
X0012982Y0013770D01*
X0013481Y0013082D01*
X0014082Y0012481D01*
X0014770Y0011982D01*
X0015527Y0011596D01*
X0016335Y0011333D01*
X0017175Y0011200D01*
X0021000Y0011200D01*
X0021000Y0016100D01*
X0012212Y0016100D01*
X0012310Y0015479D02*
X0006000Y0015479D01*
X0006000Y0014481D02*
X0012619Y0014481D01*
X0013190Y0013482D02*
X0006000Y0013482D01*
X0006000Y0012484D02*
X0014080Y0012484D01*
X0015867Y0011485D02*
X0006000Y0011485D01*
X0006000Y0010487D02*
X0051218Y0010487D01*
X0050219Y0011485D02*
X0027133Y0011485D01*
X0028920Y0012484D02*
X0049221Y0012484D01*
X0052216Y0009488D02*
X0006000Y0009488D01*
X0006000Y0008490D02*
X0053215Y0008490D01*
X0054213Y0007491D02*
X0006000Y0007491D01*
X0006000Y0006493D02*
X0055212Y0006493D01*
X0057307Y0009488D02*
X0125681Y0009488D01*
X0125076Y0010487D02*
X0056309Y0010487D01*
X0055310Y0011485D02*
X0124700Y0011485D01*
X0124700Y0012484D02*
X0054312Y0012484D01*
X0053313Y0013482D02*
X0108222Y0013482D01*
X0093245Y0028460D02*
X0085510Y0028460D01*
X0086031Y0029458D02*
X0092246Y0029458D01*
X0091248Y0030457D02*
X0086031Y0030457D01*
X0086031Y0031455D02*
X0090249Y0031455D01*
X0089251Y0032454D02*
X0086031Y0032454D01*
X0086031Y0033452D02*
X0088252Y0033452D01*
X0087254Y0034451D02*
X0085600Y0034451D01*
X0086255Y0035449D02*
X0082020Y0035449D01*
X0083936Y0036448D02*
X0084182Y0036448D01*
X0080220Y0034030D02*
X0080220Y0039689D01*
X0080220Y0034030D02*
X0082750Y0031500D01*
X0088657Y0043437D02*
X0031083Y0043437D01*
X0032082Y0044436D02*
X0088657Y0044436D01*
X0088657Y0045434D02*
X0033080Y0045434D01*
X0034079Y0046433D02*
X0088887Y0046433D01*
X0089886Y0047432D02*
X0035077Y0047432D01*
X0036076Y0048430D02*
X0090884Y0048430D01*
X0091883Y0049429D02*
X0037074Y0049429D01*
X0036600Y0051500D02*
X0021500Y0036400D01*
X0027051Y0031455D02*
X0030249Y0031455D01*
X0029251Y0032454D02*
X0028808Y0032454D01*
X0022000Y0021470D02*
X0021000Y0021470D01*
X0021000Y0020472D02*
X0022000Y0020472D01*
X0022000Y0019473D02*
X0021000Y0019473D01*
X0021000Y0018475D02*
X0022000Y0018475D01*
X0022000Y0017476D02*
X0021000Y0017476D01*
X0021000Y0016478D02*
X0006000Y0016478D01*
X0021000Y0015479D02*
X0022000Y0015479D01*
X0022000Y0014481D02*
X0021000Y0014481D01*
X0021000Y0013482D02*
X0022000Y0013482D01*
X0022000Y0012484D02*
X0021000Y0012484D01*
X0021000Y0011485D02*
X0022000Y0011485D01*
X0022000Y0016478D02*
X0045227Y0016478D01*
X0058306Y0008490D02*
X0126842Y0008490D01*
X0147788Y0006493D02*
X0225671Y0006493D01*
X0225671Y0007491D02*
X0178855Y0007491D01*
X0178364Y0007000D02*
X0181000Y0009636D01*
X0181000Y0011000D01*
X0177000Y0011000D01*
X0177000Y0012000D01*
X0176000Y0012000D01*
X0176000Y0016000D01*
X0174636Y0016000D01*
X0172000Y0013364D01*
X0172000Y0012000D01*
X0176000Y0012000D01*
X0176000Y0011000D01*
X0172000Y0011000D01*
X0172000Y0009636D01*
X0174636Y0007000D01*
X0176000Y0007000D01*
X0176000Y0011000D01*
X0177000Y0011000D01*
X0177000Y0007000D01*
X0178364Y0007000D01*
X0177000Y0007491D02*
X0176000Y0007491D01*
X0176000Y0008490D02*
X0177000Y0008490D01*
X0177000Y0009488D02*
X0176000Y0009488D01*
X0176000Y0010487D02*
X0177000Y0010487D01*
X0177000Y0011485D02*
X0225671Y0011485D01*
X0225671Y0010487D02*
X0181000Y0010487D01*
X0180852Y0009488D02*
X0225671Y0009488D01*
X0225671Y0008490D02*
X0179854Y0008490D01*
X0181000Y0012000D02*
X0177000Y0012000D01*
X0177000Y0016000D01*
X0178364Y0016000D01*
X0181000Y0013364D01*
X0181000Y0012000D01*
X0181000Y0012484D02*
X0225671Y0012484D01*
X0225671Y0013482D02*
X0180882Y0013482D01*
X0179883Y0014481D02*
X0225671Y0014481D01*
X0225671Y0015479D02*
X0178885Y0015479D01*
X0178364Y0017000D02*
X0181000Y0019636D01*
X0181000Y0021000D01*
X0177000Y0021000D01*
X0177000Y0022000D01*
X0176000Y0022000D01*
X0176000Y0026000D01*
X0174636Y0026000D01*
X0172000Y0023364D01*
X0172000Y0022000D01*
X0176000Y0022000D01*
X0176000Y0021000D01*
X0172000Y0021000D01*
X0172000Y0019636D01*
X0174636Y0017000D01*
X0176000Y0017000D01*
X0176000Y0021000D01*
X0177000Y0021000D01*
X0177000Y0017000D01*
X0178364Y0017000D01*
X0178840Y0017476D02*
X0225671Y0017476D01*
X0225671Y0016478D02*
X0153300Y0016478D01*
X0153300Y0017476D02*
X0164443Y0017476D01*
X0164719Y0017200D02*
X0168281Y0017200D01*
X0170800Y0019719D01*
X0170800Y0023281D01*
X0168281Y0025800D01*
X0164719Y0025800D01*
X0162200Y0023281D01*
X0162200Y0019719D01*
X0164719Y0017200D01*
X0164719Y0015800D02*
X0162200Y0013281D01*
X0162200Y0009719D01*
X0164719Y0007200D01*
X0168281Y0007200D01*
X0170800Y0009719D01*
X0170800Y0013281D01*
X0168281Y0015800D01*
X0164719Y0015800D01*
X0164398Y0015479D02*
X0153300Y0015479D01*
X0153300Y0014481D02*
X0163400Y0014481D01*
X0162401Y0013482D02*
X0153300Y0013482D01*
X0153300Y0012484D02*
X0162200Y0012484D01*
X0162200Y0011485D02*
X0153300Y0011485D01*
X0152924Y0010487D02*
X0162200Y0010487D01*
X0162431Y0009488D02*
X0152319Y0009488D01*
X0151158Y0008490D02*
X0163429Y0008490D01*
X0164428Y0007491D02*
X0148787Y0007491D01*
X0153300Y0018475D02*
X0163444Y0018475D01*
X0162446Y0019473D02*
X0153148Y0019473D01*
X0152734Y0020472D02*
X0162200Y0020472D01*
X0162200Y0021470D02*
X0151861Y0021470D01*
X0150800Y0022469D02*
X0162200Y0022469D01*
X0162386Y0023467D02*
X0150800Y0023467D01*
X0149830Y0024466D02*
X0163385Y0024466D01*
X0164383Y0025464D02*
X0148831Y0025464D01*
X0147833Y0026463D02*
X0225671Y0026463D01*
X0225671Y0027461D02*
X0178825Y0027461D01*
X0178364Y0027000D02*
X0181000Y0029636D01*
X0181000Y0031000D01*
X0177000Y0031000D01*
X0177000Y0032000D01*
X0176000Y0032000D01*
X0176000Y0036000D01*
X0174636Y0036000D01*
X0172000Y0033364D01*
X0172000Y0032000D01*
X0176000Y0032000D01*
X0176000Y0031000D01*
X0172000Y0031000D01*
X0172000Y0029636D01*
X0174636Y0027000D01*
X0176000Y0027000D01*
X0176000Y0031000D01*
X0177000Y0031000D01*
X0177000Y0027000D01*
X0178364Y0027000D01*
X0178364Y0026000D02*
X0177000Y0026000D01*
X0177000Y0022000D01*
X0181000Y0022000D01*
X0181000Y0023364D01*
X0178364Y0026000D01*
X0178900Y0025464D02*
X0225671Y0025464D01*
X0225671Y0024466D02*
X0179898Y0024466D01*
X0180897Y0023467D02*
X0225671Y0023467D01*
X0225671Y0022469D02*
X0181000Y0022469D01*
X0181000Y0020472D02*
X0225671Y0020472D01*
X0225671Y0021470D02*
X0177000Y0021470D01*
X0177000Y0020472D02*
X0176000Y0020472D01*
X0176000Y0021470D02*
X0170800Y0021470D01*
X0170800Y0020472D02*
X0172000Y0020472D01*
X0172163Y0019473D02*
X0170554Y0019473D01*
X0169556Y0018475D02*
X0173161Y0018475D01*
X0174160Y0017476D02*
X0168557Y0017476D01*
X0168602Y0015479D02*
X0174115Y0015479D01*
X0173117Y0014481D02*
X0169600Y0014481D01*
X0170599Y0013482D02*
X0172118Y0013482D01*
X0172000Y0012484D02*
X0170800Y0012484D01*
X0170800Y0011485D02*
X0176000Y0011485D01*
X0176000Y0012484D02*
X0177000Y0012484D01*
X0177000Y0013482D02*
X0176000Y0013482D01*
X0176000Y0014481D02*
X0177000Y0014481D01*
X0177000Y0015479D02*
X0176000Y0015479D01*
X0176000Y0017476D02*
X0177000Y0017476D01*
X0177000Y0018475D02*
X0176000Y0018475D01*
X0176000Y0019473D02*
X0177000Y0019473D01*
X0177000Y0022469D02*
X0176000Y0022469D01*
X0176000Y0023467D02*
X0177000Y0023467D01*
X0177000Y0024466D02*
X0176000Y0024466D01*
X0176000Y0025464D02*
X0177000Y0025464D01*
X0177000Y0027461D02*
X0176000Y0027461D01*
X0176000Y0028460D02*
X0177000Y0028460D01*
X0177000Y0029458D02*
X0176000Y0029458D01*
X0176000Y0030457D02*
X0177000Y0030457D01*
X0177000Y0031455D02*
X0225671Y0031455D01*
X0225671Y0030457D02*
X0181000Y0030457D01*
X0180822Y0029458D02*
X0225671Y0029458D01*
X0225671Y0028460D02*
X0179824Y0028460D01*
X0181000Y0032000D02*
X0177000Y0032000D01*
X0177000Y0036000D01*
X0178364Y0036000D01*
X0181000Y0033364D01*
X0181000Y0032000D01*
X0181000Y0032454D02*
X0225671Y0032454D01*
X0225671Y0033452D02*
X0180912Y0033452D01*
X0179913Y0034451D02*
X0225671Y0034451D01*
X0225671Y0035449D02*
X0178915Y0035449D01*
X0178364Y0037000D02*
X0177000Y0037000D01*
X0177000Y0041000D01*
X0177000Y0042000D01*
X0176000Y0042000D01*
X0176000Y0046000D01*
X0174636Y0046000D01*
X0172000Y0043364D01*
X0172000Y0042000D01*
X0176000Y0042000D01*
X0176000Y0041000D01*
X0172000Y0041000D01*
X0172000Y0039636D01*
X0174636Y0037000D01*
X0176000Y0037000D01*
X0176000Y0041000D01*
X0177000Y0041000D01*
X0181000Y0041000D01*
X0181000Y0039636D01*
X0178364Y0037000D01*
X0178810Y0037446D02*
X0225671Y0037446D01*
X0225671Y0036448D02*
X0149098Y0036448D01*
X0150096Y0035449D02*
X0164368Y0035449D01*
X0164719Y0035800D02*
X0162219Y0033300D01*
X0152246Y0033300D01*
X0142246Y0043300D01*
X0133531Y0043300D01*
X0133531Y0044020D01*
X0132770Y0044781D01*
X0127730Y0044781D01*
X0126969Y0044020D01*
X0126969Y0038980D01*
X0127730Y0038219D01*
X0132770Y0038219D01*
X0133531Y0038980D01*
X0133531Y0039700D01*
X0140754Y0039700D01*
X0149700Y0030754D01*
X0150754Y0029700D01*
X0162219Y0029700D01*
X0164719Y0027200D01*
X0168281Y0027200D01*
X0170800Y0029719D01*
X0170800Y0033281D01*
X0168281Y0035800D01*
X0164719Y0035800D01*
X0164719Y0037200D02*
X0168281Y0037200D01*
X0170800Y0039719D01*
X0170800Y0043281D01*
X0168281Y0045800D01*
X0164719Y0045800D01*
X0162200Y0043281D01*
X0162200Y0039719D01*
X0164719Y0037200D01*
X0164472Y0037446D02*
X0148099Y0037446D01*
X0147101Y0038445D02*
X0163474Y0038445D01*
X0162475Y0039443D02*
X0146102Y0039443D01*
X0145104Y0040442D02*
X0162200Y0040442D01*
X0162200Y0041440D02*
X0144105Y0041440D01*
X0143107Y0042439D02*
X0162200Y0042439D01*
X0162356Y0043437D02*
X0133531Y0043437D01*
X0133115Y0044436D02*
X0163355Y0044436D01*
X0164353Y0045434D02*
X0150472Y0045434D01*
X0150950Y0046433D02*
X0225671Y0046433D01*
X0225671Y0045434D02*
X0178929Y0045434D01*
X0178364Y0046000D02*
X0177000Y0046000D01*
X0177000Y0042000D01*
X0181000Y0042000D01*
X0181000Y0043364D01*
X0178364Y0046000D01*
X0178364Y0047000D02*
X0181000Y0049636D01*
X0181000Y0051000D01*
X0177000Y0051000D01*
X0177000Y0052000D01*
X0176000Y0052000D01*
X0176000Y0051000D01*
X0172000Y0051000D01*
X0172000Y0049636D01*
X0174636Y0047000D01*
X0176000Y0047000D01*
X0176000Y0051000D01*
X0177000Y0051000D01*
X0177000Y0047000D01*
X0178364Y0047000D01*
X0178795Y0047432D02*
X0225671Y0047432D01*
X0225671Y0048430D02*
X0179794Y0048430D01*
X0180792Y0049429D02*
X0225671Y0049429D01*
X0225671Y0050427D02*
X0181000Y0050427D01*
X0181000Y0052000D02*
X0181000Y0053364D01*
X0178364Y0056000D01*
X0177000Y0056000D01*
X0177000Y0052000D01*
X0181000Y0052000D01*
X0181000Y0052424D02*
X0225671Y0052424D01*
X0225671Y0051426D02*
X0177000Y0051426D01*
X0177000Y0052424D02*
X0176000Y0052424D01*
X0176000Y0051426D02*
X0170800Y0051426D01*
X0170800Y0052424D02*
X0172000Y0052424D01*
X0172059Y0053423D02*
X0170659Y0053423D01*
X0169660Y0054421D02*
X0173057Y0054421D01*
X0176000Y0054421D02*
X0177000Y0054421D01*
X0177000Y0053423D02*
X0176000Y0053423D01*
X0176000Y0055420D02*
X0177000Y0055420D01*
X0178944Y0055420D02*
X0225671Y0055420D01*
X0225671Y0056418D02*
X0163964Y0056418D01*
X0164339Y0055420D02*
X0162965Y0055420D01*
X0163489Y0048430D02*
X0150950Y0048430D01*
X0150950Y0047432D02*
X0164487Y0047432D01*
X0168513Y0047432D02*
X0174205Y0047432D01*
X0173206Y0048430D02*
X0169511Y0048430D01*
X0170510Y0049429D02*
X0172207Y0049429D01*
X0172000Y0050427D02*
X0170800Y0050427D01*
X0168647Y0045434D02*
X0174071Y0045434D01*
X0173072Y0044436D02*
X0169645Y0044436D01*
X0170644Y0043437D02*
X0172074Y0043437D01*
X0172000Y0042439D02*
X0170800Y0042439D01*
X0170800Y0041440D02*
X0176000Y0041440D01*
X0176000Y0040442D02*
X0177000Y0040442D01*
X0177000Y0041440D02*
X0225671Y0041440D01*
X0225671Y0040442D02*
X0181000Y0040442D01*
X0180807Y0039443D02*
X0225671Y0039443D01*
X0225671Y0038445D02*
X0179809Y0038445D01*
X0177000Y0038445D02*
X0176000Y0038445D01*
X0176000Y0039443D02*
X0177000Y0039443D01*
X0177000Y0037446D02*
X0176000Y0037446D01*
X0174190Y0037446D02*
X0168528Y0037446D01*
X0169526Y0038445D02*
X0173191Y0038445D01*
X0172193Y0039443D02*
X0170525Y0039443D01*
X0170800Y0040442D02*
X0172000Y0040442D01*
X0176000Y0042439D02*
X0177000Y0042439D01*
X0177000Y0043437D02*
X0176000Y0043437D01*
X0176000Y0044436D02*
X0177000Y0044436D01*
X0177000Y0045434D02*
X0176000Y0045434D01*
X0176000Y0047432D02*
X0177000Y0047432D01*
X0177000Y0048430D02*
X0176000Y0048430D01*
X0176000Y0049429D02*
X0177000Y0049429D01*
X0177000Y0050427D02*
X0176000Y0050427D01*
X0179943Y0054421D02*
X0225671Y0054421D01*
X0225671Y0053423D02*
X0180941Y0053423D01*
X0178781Y0057417D02*
X0225671Y0057417D01*
X0225671Y0058415D02*
X0179779Y0058415D01*
X0180778Y0059414D02*
X0225671Y0059414D01*
X0225671Y0060412D02*
X0181000Y0060412D01*
X0178766Y0067402D02*
X0225671Y0067402D01*
X0225671Y0068400D02*
X0179764Y0068400D01*
X0180763Y0069399D02*
X0225671Y0069399D01*
X0225671Y0070397D02*
X0181000Y0070397D01*
X0173251Y0078385D02*
X0169466Y0078385D01*
X0170465Y0079384D02*
X0172252Y0079384D01*
X0172000Y0080382D02*
X0170800Y0080382D01*
X0170800Y0060412D02*
X0172000Y0060412D01*
X0172222Y0059414D02*
X0170495Y0059414D01*
X0179928Y0044436D02*
X0225671Y0044436D01*
X0225671Y0043437D02*
X0180926Y0043437D01*
X0181000Y0042439D02*
X0225671Y0042439D01*
X0225671Y0019473D02*
X0180837Y0019473D01*
X0179839Y0018475D02*
X0225671Y0018475D01*
X0177000Y0032454D02*
X0176000Y0032454D01*
X0176000Y0033452D02*
X0177000Y0033452D01*
X0177000Y0034451D02*
X0176000Y0034451D01*
X0176000Y0035449D02*
X0177000Y0035449D01*
X0174085Y0035449D02*
X0168632Y0035449D01*
X0169630Y0034451D02*
X0173087Y0034451D01*
X0172088Y0033452D02*
X0170629Y0033452D01*
X0170800Y0032454D02*
X0172000Y0032454D01*
X0170800Y0031455D02*
X0176000Y0031455D01*
X0173176Y0028460D02*
X0169541Y0028460D01*
X0170539Y0029458D02*
X0172178Y0029458D01*
X0172000Y0030457D02*
X0170800Y0030457D01*
X0166500Y0031500D02*
X0151500Y0031500D01*
X0141500Y0041500D01*
X0130250Y0041500D01*
X0133531Y0039443D02*
X0141011Y0039443D01*
X0142009Y0038445D02*
X0132996Y0038445D01*
X0127504Y0038445D02*
X0122050Y0038445D01*
X0122050Y0039443D02*
X0126969Y0039443D01*
X0126969Y0040442D02*
X0122050Y0040442D01*
X0122050Y0041440D02*
X0126969Y0041440D01*
X0126969Y0042439D02*
X0122050Y0042439D01*
X0122050Y0043437D02*
X0126969Y0043437D01*
X0127385Y0044436D02*
X0122050Y0044436D01*
X0122050Y0045434D02*
X0142528Y0045434D01*
X0142050Y0046433D02*
X0123484Y0046433D01*
X0123531Y0051426D02*
X0142050Y0051426D01*
X0143008Y0037446D02*
X0122050Y0037446D01*
X0122050Y0036448D02*
X0144007Y0036448D01*
X0145005Y0035449D02*
X0122596Y0035449D01*
X0123595Y0034451D02*
X0146004Y0034451D01*
X0147002Y0033452D02*
X0124593Y0033452D01*
X0125592Y0032454D02*
X0148001Y0032454D01*
X0148999Y0031455D02*
X0126590Y0031455D01*
X0127589Y0030457D02*
X0149998Y0030457D01*
X0152093Y0033452D02*
X0162371Y0033452D01*
X0163370Y0034451D02*
X0151095Y0034451D01*
X0145836Y0028460D02*
X0163459Y0028460D01*
X0162461Y0029458D02*
X0144837Y0029458D01*
X0146834Y0027461D02*
X0164458Y0027461D01*
X0168542Y0027461D02*
X0174175Y0027461D01*
X0174100Y0025464D02*
X0168617Y0025464D01*
X0169615Y0024466D02*
X0173102Y0024466D01*
X0172103Y0023467D02*
X0170614Y0023467D01*
X0170800Y0022469D02*
X0172000Y0022469D01*
X0172000Y0010487D02*
X0170800Y0010487D01*
X0170569Y0009488D02*
X0172148Y0009488D01*
X0173146Y0008490D02*
X0169571Y0008490D01*
X0168572Y0007491D02*
X0174145Y0007491D01*
X0114000Y0074000D02*
X0095250Y0055250D01*
X0090250Y0055250D01*
X0087898Y0057602D01*
X0087898Y0063311D01*
X0090457Y0063311D02*
X0090457Y0065457D01*
X0101500Y0076500D01*
X0101500Y0093990D01*
X0100240Y0095250D01*
X0104099Y0097357D02*
X0124842Y0097357D01*
X0124469Y0098356D02*
X0104099Y0098356D01*
X0103683Y0099354D02*
X0124469Y0099354D01*
X0124469Y0100353D02*
X0071150Y0100353D01*
X0071150Y0101351D02*
X0124469Y0101351D01*
X0127750Y0100250D02*
X0159000Y0100250D01*
X0165250Y0100250D01*
X0166500Y0101500D01*
X0162200Y0102350D02*
X0131031Y0102350D01*
X0130453Y0103348D02*
X0162267Y0103348D01*
X0142050Y0084376D02*
X0103300Y0084376D01*
X0103300Y0083378D02*
X0108827Y0083378D01*
X0108219Y0082379D02*
X0103300Y0082379D01*
X0103300Y0081381D02*
X0108219Y0081381D01*
X0108219Y0080382D02*
X0103300Y0080382D01*
X0103300Y0079384D02*
X0108088Y0079384D01*
X0107090Y0078385D02*
X0103300Y0078385D01*
X0099700Y0078385D02*
X0094296Y0078385D01*
X0094296Y0077387D02*
X0099700Y0077387D01*
X0099700Y0077246D02*
X0089030Y0066576D01*
X0089027Y0066580D01*
X0087139Y0066580D01*
X0087139Y0067093D01*
X0091183Y0071137D01*
X0092096Y0072050D01*
X0093535Y0072050D01*
X0094296Y0072812D01*
X0094296Y0080188D01*
X0093535Y0080950D01*
X0092237Y0080950D01*
X0092237Y0090800D01*
X0095857Y0090800D01*
X0096500Y0091443D01*
X0097143Y0090800D01*
X0099700Y0090800D01*
X0099700Y0077246D01*
X0098843Y0076388D02*
X0094296Y0076388D01*
X0094296Y0075390D02*
X0097844Y0075390D01*
X0096846Y0074391D02*
X0094296Y0074391D01*
X0094296Y0073393D02*
X0095847Y0073393D01*
X0094849Y0072394D02*
X0093878Y0072394D01*
X0093850Y0071396D02*
X0091441Y0071396D01*
X0090443Y0070397D02*
X0092852Y0070397D01*
X0091853Y0069399D02*
X0089444Y0069399D01*
X0088446Y0068400D02*
X0090855Y0068400D01*
X0089856Y0067402D02*
X0087447Y0067402D01*
X0085339Y0067839D02*
X0090437Y0072937D01*
X0090437Y0076500D01*
X0090437Y0092927D01*
X0092760Y0095250D01*
X0088901Y0095360D02*
X0058441Y0095360D01*
X0058531Y0094362D02*
X0088901Y0094362D01*
X0088637Y0093363D02*
X0058531Y0093363D01*
X0058531Y0092365D02*
X0088637Y0092365D01*
X0088637Y0091366D02*
X0058531Y0091366D01*
X0058531Y0090368D02*
X0088637Y0090368D01*
X0088637Y0089369D02*
X0029785Y0089369D01*
X0030212Y0088370D02*
X0088637Y0088370D01*
X0088637Y0087372D02*
X0030600Y0087372D01*
X0030600Y0086373D02*
X0088637Y0086373D01*
X0088637Y0085375D02*
X0030600Y0085375D01*
X0030190Y0084376D02*
X0088637Y0084376D01*
X0088637Y0083378D02*
X0029732Y0083378D01*
X0028733Y0082379D02*
X0088637Y0082379D01*
X0088637Y0081381D02*
X0026871Y0081381D01*
X0028786Y0090368D02*
X0051969Y0090368D01*
X0051969Y0091366D02*
X0026999Y0091366D01*
X0057050Y0096359D02*
X0088901Y0096359D01*
X0088901Y0097357D02*
X0057050Y0097357D01*
X0057050Y0098356D02*
X0088901Y0098356D01*
X0089317Y0099354D02*
X0070893Y0099354D01*
X0070950Y0107342D02*
X0225671Y0107342D01*
X0225671Y0108341D02*
X0070950Y0108341D01*
X0070950Y0109339D02*
X0225671Y0109339D01*
X0225671Y0110338D02*
X0070950Y0110338D01*
X0070950Y0111336D02*
X0225671Y0111336D01*
X0225671Y0112335D02*
X0070950Y0112335D01*
X0070950Y0113333D02*
X0225671Y0113333D01*
X0142050Y0083378D02*
X0114173Y0083378D01*
X0114781Y0082379D02*
X0142050Y0082379D01*
X0142050Y0081381D02*
X0114781Y0081381D01*
X0099700Y0081381D02*
X0092237Y0081381D01*
X0092237Y0082379D02*
X0099700Y0082379D01*
X0099700Y0083378D02*
X0092237Y0083378D01*
X0092237Y0084376D02*
X0099700Y0084376D01*
X0099700Y0085375D02*
X0092237Y0085375D01*
X0092237Y0086373D02*
X0099700Y0086373D01*
X0099700Y0087372D02*
X0092237Y0087372D01*
X0092237Y0088370D02*
X0099700Y0088370D01*
X0099700Y0089369D02*
X0092237Y0089369D01*
X0092237Y0090368D02*
X0099700Y0090368D01*
X0096577Y0091366D02*
X0096423Y0091366D01*
X0096203Y0099354D02*
X0096797Y0099354D01*
X0094102Y0080382D02*
X0099700Y0080382D01*
X0099700Y0079384D02*
X0094296Y0079384D01*
X0086772Y0080382D02*
X0086431Y0080382D01*
X0083063Y0080382D02*
X0082063Y0080382D01*
X0082063Y0079384D02*
X0083063Y0079384D01*
X0083063Y0078385D02*
X0082063Y0078385D01*
X0082063Y0077387D02*
X0083063Y0077387D01*
X0085339Y0067839D02*
X0085339Y0063311D01*
X0085339Y0057839D01*
X0079000Y0051500D01*
X0036600Y0051500D01*
X0080473Y0050427D02*
X0092881Y0050427D01*
X0093880Y0051426D02*
X0081471Y0051426D01*
X0082470Y0052424D02*
X0094879Y0052424D01*
X0095877Y0053423D02*
X0083468Y0053423D01*
X0084467Y0054421D02*
X0088533Y0054421D01*
X0087535Y0055420D02*
X0085465Y0055420D01*
X0086464Y0056418D02*
X0086536Y0056418D01*
X0089698Y0058415D02*
X0095870Y0058415D01*
X0096868Y0059414D02*
X0089698Y0059414D01*
X0090629Y0057417D02*
X0094871Y0057417D01*
X0062107Y0099354D02*
X0057050Y0099354D01*
X0057050Y0100353D02*
X0061850Y0100353D01*
X0061850Y0101351D02*
X0057050Y0101351D01*
D20*
X0055250Y0092750D03*
X0096500Y0084000D03*
X0111500Y0080250D03*
X0127750Y0100250D03*
X0120250Y0049000D03*
X0130250Y0041500D03*
X0082750Y0031500D03*
X0082750Y0024000D03*
X0064000Y0020250D03*
X0055250Y0031500D03*
X0064000Y0036500D03*
D21*
X0021500Y0086400D02*
X0021500Y0124000D01*
X0039000Y0141500D01*
X0066500Y0141500D01*
M02*
